4 6 -999 5 0 6 5 8 0 4 7 4 5 4 1 0 -1 5 6 4 5 -920 3 1 -3 -2 2 0 5 9
0 5 7 4 0 6 6 1 7 6 5 9 2 5 0 6 1 5 -999 7 8 3 -2 2 -1 -3 -920 5 6 4
10 5 4 -101 0 6 -999 109 11 -4 5 9 1 0 -2 -3 2 105 7 12 6 4 0 -920 -1 1 2 103 8 6
11 4 2 -920 0 6 8 7 12 9 -999 6 1 3 -2 -3 5 7 -1 11 5 4 1 -1 1 0 -2 -920 6 7
15 12 9 10 -910 6 13 11 2 -910 14 -2 -950 3 -3 -1 0 1 -999 16 628 8 -910 -910 -910 6 5 4 7 -950
17 3 16 628 -910 6 5 4 9 206 15 12 11 2 -950 1 6 14 -999 10 -910 -910 -910 -910 -910 -910 8 7 13 615
7 -910 18 19 -910 15 8 17 -910 212 -999 10 12 6 -950 -950 15 628 16 9 13 11 14 -910 -910 -910 -910 -910 -910 615
40 -910 228 24 -910 25 -999 -910 43 51 33 36 -950 -950 -950 -950 -950 21 28 37 -910 -910 -910 -910 -910 -910 -910 -910 628 628
115 -910 -999 111 -910 6 112 116 -910 212 613 628 7 5 -950 -950 6 10 114 109 -910 -910 -910 -910 -910 -910 -910 6 8 615
755 758 735 732 756 760 733 751 728 730 734 740 739 752 744 743 749 740 736 750 737 748 746 741 747 740 742 745 738 731
-834 -817 -821 -822 -816 -825 -820 -833 -835 -836 -819 -825 -827 -830 -814 -825 -828 -824 -818 -826 -835 -829 -823 -831 -836 -833 -832 -998 -815 -834
880 885 871 865 862 864 868 873 878 872 869 850 860 857 854 861 855 866 870 876 863 858 856 852 855 851 853 859 867 874
412 410 425 436 400 407 421 413 419 418 417 406 -999 404 400 400 405 408 411 416 -406 412 406 401 402 400 403 414 409 415
300 300 300 305 300 300 300 300 300 300 300 306 312 323 329 324 -900 -900 300 300 300 314 321 329 397 300 317 330 300 -999
510 525 536 512 514 -999 545 511 509 528 542 520 515 519 521 523 527 513 539 508 516 520 517 524 506 520 522 518 526 528
11 12 13 14 15 16 17 18 19 20 21 22 23 24 24 23 22 21 19 18 17 16 15 14 13 12 11 11 12 11
1 1 1 1 1 1 1 0 0 1 1 1 0 0 1 1 0 0 0 1 1 1 0 0 1 1 1 0 0 1
2 2 2 0 0 -1 -2 -3 -4 -5 2 2 2 0 5 3 3 3 0 0 2 2 2 0 0 3 3 3 600 -999
2 2 2 0 0 -1 -2 -3 -4 -5 0 0 0 0 0 3 3 3 0 0 1 1 1 0 0 3 3 3 600 -999
2 2 2 0 0 0 0 604 0 0 -1 -2 -3 -4 -5 3 3 3 0 0 1 1 1 0 0 3 3 3 -4 -999
-1 -2 -3 -4 -5 0 0 0 0 0 2 2 2 0 5 3 3 3 0 605 3 3 3 0 0 3 3 3 610 -999
0 0 0 0 0 0 0 0 0 -604 0 601 601 601 -603 0 0 0 0 0 0 0 0 0 0 10 10 10 10 -999
0 0 0 0 0 0 0 0 0 0 0 0 0 0 4 0 601 601 601 601 0 0 0 0 0 615 615 0 0 206
0 601 601 601 601 10 10 10 0 0 0 0 0 10 10 0 0 0 0 0 0 0 0 0 0 0 0 0 -950 212
0 0 -910 0 228 0 0 0 1 -910 0 0 0 0 228 0 0 -910 0 228 -910 -910 -910 -1 228 0 0 -950 -910 228
0 0 0 10 10 610 610 610 0 0 0 0 0 0 0 0 601 601 601 601 0 0 0 0 0 0 0 0 -950 212
11 10 17 12 10 11 16 18 13 14 15 13 19 12 15 13 18 21 12 14 25 17 14 11 10 20 26 16 29 19
-13 109 3 6 5 2 1 4 8 -920 7 -920 -920 9 -5 -3 -8 -14 -12 -11 -9 -7 -999 -1 -6 -2 -8 0 -10 -12
22

