OH!/HE/BREAKS/INTO/THE/OPEN!~
OH!/HO!/HE/BREAKS/IN/TO/THE/OPEN/FIELD!~
HE/RUNS/THROUGH/A/GAPING/HOLE!/AND/HE/IS/LOOSE/IN/THE/SECONDARY!~
HE/BREAKS/FREE!/AND/HE/IS/OFF/TO/THE/RACES!~
OH!/HE/BREAKS/OUT/OF/THE/TACKLE!/AND/IS/RUNNING/FREE/THROUGH/THE/SECONDARY!~
THE/DEFENDER/SLIPS!/AND/FALLS/DOWN!/AND/THE/BALL/CARRIER/IS/RUNNING/FREE!~
HE/SHAKES/OFF/THE/DEFENDERS!/AND/BREAKS/FREE!~
HE/SLIPS/OUT/OF/THE/DEFENDERS/ARMS!/AND/BREAKS/LOOSE!~
OH!/WHAT/A/BLOCK!/THAT/BROKE/THE/RUNNER/FREE!~
HE/OUT/RUNS/THE/DEFENDER!/AND/GETS/INTO/THE/SECONDARY!~
HE/BREAKS/THROUGH/THE/DEFENDERS!/AND/IS/LOOSE/IN/THE/SECONDARY!~
HE/SQUIRTS/THROUGH/THE/LINE!/AND/IS/RUNNING/FREE/IN/THE/SECONDARY!~
FUMBLE!/HE/DROPS/THE/BALL!/AND/HE/GETS/IT/BACK!/AND/HE/IS/RUNNING/FREE!~
OH!/HO!/HE/LATERALS/THE/BALL!/AND/THE/BALL/CARRIER/BREAKS/FREE/DOWN/FIELD!~
HE/POUNDS/HIS/WAY/THROUGH/THE/LINE!/AND/POWERS/HIS/WAY/DOWN/FIELD!~
HE/TWIST/OUT/OF/THE/DEFENDERS/GRASP!/AND/RAMBLES/DOWN/FIELD!~
HE/BREAKS/FREE!/AND/RAMBLES/DOWN/FIELD!~
