-920 7 -920 4 0 6 8 -2 7 -3 -999 4 3 7 9 3 5 2 1 -920 -920 -1 5 2 5 3 5 6 0 5
3 6 5 3 0 6 -999 9 8 6 -3 6 2 5 2 -920 7 -1 9 6 3 8 6 5 4 0 5 7 -2 1
9 8 -999 5 0 6 104 8 4 5 6 8 101 6 1 107 4 5 -2 5 -1 4 -3 2 0 1 -920 5 103 5
5 9 -3 -999 0 6 13 3 6 4 10 11 3 8 7 0 7 -2 6 9 6 8 2 -1 -920 12 9 1 7 -4
28 14 11 -999 -910 6 -1 15 17 -214 12 3 -910 0 6 7 2 4 13 -8 -2 -3 9 5 -910 -910 8 1 10 16
3 1 16 -999 -910 6 17 2 4 609 18 15 12 7 10 9 11 14 19 10 13 6 8 -910 -910 -910 -910 5 615 28
-910 611 615 -999 -910 6 616 12 610 219 8 15 13 17 19 18 14 11 7 28 10 16 -910 -910 -910 -910 -910 15 9 612
56 626 30 -999 -910 25 50 625 54 228 43 31 32 -950 -950 -950 28 38 46 49 41 -910 -910 -910 -910 -910 -910 -950 40 635
110 107 113 -999 -910 6 111 109 108 128 615 118 116 6 610 611 14 19 615 6 17 -910 612 -910 -910 -910 -910 112 115 -910
732 -999 734 737 753 754 728 762 728 730 749 736 739 741 743 746 740 740 752 735 758 742 745 747 748 740 744 738 760 -998
-813 -818 -822 -998 -825 -825 -821 -817 -814 -812 -820 -826 -827 -831 -833 -832 -828 -825 -819 -815 -824 -830 -807 -835 -837 -836 -834 -829 -823 -816
877 874 870 860 863 864 871 875 878 880 872 865 862 850 857 858 861 866 873 879 867 859 855 855 853 854 856 868 869 876
436 416 415 401 400 400 413 417 430 403 400 400 407 405 411 404 406 406 400 419 409 402 412 -999 454 400 403 -401 408 418
300 300 300 -999 304 336 300 300 300 306 325 300 307 309 315 300 368 306 300 300 322 313 312 -900 306 300 300 300 300 300
519 524 516 523 518 517 506 522 505 504 521 514 532 510 511 534 -999 520 520 515 509 513 500 508 549 520 506 512 526 507
11 12 13 14 15 16 17 18 19 20 21 22 23 24 24 23 22 21 20 19 18 17 16 15 14 13 12 11 11 12
1 1 1 1 1 1 1 1 1 1 1 1 0 1 1 1 1 1 1 1 1 1 1 1 1 1 1 1 1 1
0 0 0 0 0 -5 -4 -3 -2 -1 0 0 0 0 0 0 0 0 604 0 0 0 0 0 604 0 0 600 0 -999
0 0 0 0 0 -5 -4 -3 -2 -1 0 0 0 0 0 0 0 0 0 0 0 0 0 0 604 0 0 600 0 -999
0 0 0 0 0 0 0 0 0 0 -5 -4 -3 -2 -1 0 0 0 0 0 0 0 0 0 0 0 0 600 -8 -999
-5 -4 -3 -2 -1 -1 -1 0 0 0 0 0 0 0 0 0 0 0 0 0 0 0 0 0 0 0 0 600 0 -999
0 0 0 0 0 0 0 0 0 200 601 601 601 0 0 0 0 0 0 0 10 0 0 0 0 20 20 20 0 -206
0 0 0 0 0 0 0 0 0 -1 0 0 0 0 0 601 601 601 0 0 10 0 0 0 1 610 615 620 -950 0
601 601 601 0 0 10 10 10 0 0 10 10 10 0 0 10 10 10 10 21 0 0 0 0 0 0 0 -950 0 212
0 -910 0 0 -900 0 0 -900 0 -950 0 0 0 0 -900 -910 0 0 0 -900 -910 -910 221 0 0 -950 0 -900 0 0
10 10 10 0 0 10 10 10 0 0 0 0 0 0 0 601 601 601 0 0 0 0 0 0 0 0 0 0 -950 212
16 11 10 13 15 14 18 12 15 17 12 19 10 17 14 16 11 15 17 14 24 19 15 12 11 10 13 18 26 13
16 15 11 8 2 6 4 10 17 18 1 -8 -2 -6 0 -4 -11 -9 3 9 -999 -3 -10 -12 -13 -14 -1 -7 -999 5
15

