3 6 2 -999 6 0 2 8 7 5 -3 7 2 -2 606 4 1 3 -1 9 8 1 -920 7 604 605 0 1 3 2
2 3 1 -999 6 0 1 2 -3 607 1 0 605 2 6 4 606 8 7 9 -2 604 603 -999 6 5 2 4 3 -1
15 112 -2 -999 6 0 104 111 16 -999 10 1 6 3 1 2 7 109 -101 14 108 4 -103 0 -920 -1 -2 5 4 13
4 7 1 -999 6 0 9 8 4 -999 4 5 6 0 8 9 3 -3 -1 5 6 2 8 3 7 -920 4 6 -2 5
15 7 8 -999 6 -910 200 11 13 16 -4 3 4 -2 -3 12 28 14 -1 6 2 0 -910 -910 -910 5 1 9 10 -910
12 13 606 -999 6 -910 18 28 17 206 14 16 1 2 3 5 11 10 9 19 15 8 6 -910 -910 -910 -910 4 7 -910
18 16 17 -999 15 -910 11 19 28 211 15 611 15 612 10 614 7 8 13 20 9 -910 -910 -910 -910 -910 -910 -910 14 -910
58 -910 48 -999 25 -910 44 49 228 80 41 31 621 -950 -950 21 27 32 40 55 -910 -910 -910 -910 -950 -950 -910 -910 -910 628
117 116 109 -999 6 -910 107 118 119 212 114 112 10 8 106 6 611 115 128 113 105 -910 -910 -910 -910 -910 -910 -910 611 -910
750 749 730 760 746 731 744 747 755 720 748 740 751 737 740 739 734 732 736 754 733 745 738 741 742 740 728 743 735 -999
-811 -814 -819 -820 -822 -821 -818 -815 -809 -807 -817 -820 -827 -830 -820 -998 -826 -823 -816 -810 -824 -829 -813 -812 -808 -802 -831 -828 -825 -800
874 870 866 864 859 860 865 869 872 880 867 858 857 850 855 850 856 861 868 873 862 855 851 852 853 850 854 851 863 871
414 408 400 401 402 411 400 400 401 412 400 406 400 407 415 406 400 419 401 405 416 -999 413 410 425 400 403 409 412 404
300 312 321 300 325 330 319 306 300 306 -999 306 301 306 305 307 308 333 318 300 329 300 316 300 -900 300 304 300 394 317
527 -999 513 528 521 526 509 517 524 529 522 520 519 512 514 -999 532 523 520 525 530 536 515 511 520 520 516 510 535 518
11 12 13 14 15 16 17 18 19 20 21 22 23 24 24 23 22 21 20 19 18 17 16 15 14 13 12 11 11 12
1 1 1 1 1 1 1 1 1 1 1 1 0 0 1 1 1 1 1 1 1 1 1 1 1 1 1 1 1 1
0 0 0 0 0 -1 -2 -3 -4 -5 0 0 0 0 0 3 3 3 0 0 3 3 3 0 0 3 0 0 600 -999
0 0 0 0 0 -1 -2 -3 -4 -5 0 0 0 0 0 3 3 3 0 0 3 3 3 0 0 3 0 0 600 -999
0 0 0 0 0 0 0 0 0 0 -1 -2 -3 -4 -5 3 3 3 0 0 3 3 3 0 0 3 0 604 600 -7
-1 -2 -3 -4 -5 0 0 0 0 0 0 0 0 0 0 3 3 3 0 0 3 3 3 0 0 3 0 0 600 -11
0 0 0 0 -7 0 0 0 0 -950 601 601 601 0 0 0 0 0 0 0 0 0 0 0 0 10 10 10 -8 200
0 0 0 0 0 0 0 0 0 -999 0 0 0 0 0 601 601 601 0 0 0 0 0 0 0 0 0 0 -950 206
601 601 601 0 -999 10 10 10 0 -999 0 0 0 0 -910 0 0 0 -910 212 0 0 0 0 212 0 0 -950 0 212
0 0 -910 228 -910 0 0 0 -950 -950 -6 -6 -9 228 -910 0 0 -910 228 -910 -910 -910 -910 228 228 -950 0 0 228 228
0 0 0 0 212 0 0 0 0 -999 0 0 0 0 0 601 601 601 0 212 0 0 0 0 -910 0 0 -950 0 212
12 14 21 19 33 26 23 15 16 18 10 21 11 17 15 14 10 23 13 12 22 19 13 12 11 10 16 18 35 17
14 12 11 3 2 1 9 13 18 26 7 -11 0 -8 -7 -6 -5 -13 6 -18 -3 -10 -4 -2 -14 -9 -999 -1 -12 6
13
