THEY/SETUP/IN/AN/I/FORMATION.~
THEY/SETUP/IN/A/PRO/SET.~
THEY/SETUP/IN/A/SPLIT/BACK/FORMATION.~
THEY/SETUP/IN/A/DEEP/I/FORMATION.~
THEY/SETUP/IN/A/DOUBLE/TIGHT/END/FORMATION.~
THEY/SETUP/IN/A/SINGLE/BACK/FORMATION.~
