the/ball/is/over/thrown!/PICKED/OFF!~
THE/DEFENDER/STEPS/IN/FRONT/OF/THE/RECEIVER!/AND/PICKS/IT/OFF!~
OH!/THE/DEFENDER/TAKES/THE/BALL/AWAY/FROM/THE/RECEIVER!/PICKED/OFF!~
THE/RECEIVER/JUMPS!/AND/HITS/THE/BALL/INTO/THE/AIR!//AND/IT/IS/PICKED/OFF!~
THE/BALL/IS/THROWN/BEHIND/THE/RECEIVER./AND/IT/IS/PICKED/OFF!~
THE/BALL/GOES/THREW/THE/RECEIVERS/HANDS!/AND/THE/DEFENDER/PICKS/IT/OFF!~
THE/DEFENDER/TAKES/THE/BALL/OUT/OF/THE/RECEIVERS/HANDS!/INTERCEPTION!~
THE/BALL/IS/THROWN/RIGHT/TO/THE/DEFENDER!/INTERCEPTION!~
THE/BALL/IS/GOING/TO/BE/PICKED/OFF!/THE/RECEIVER/SLIPPED!/AND/HE/CANNOT/GET//////THERE!~
INTERCEPTION!/THE/BALL/WAS/HUNG/UP/TOO/HIGH!/AND/THE/DEFENDERS/ARE/THERE!~
INTERCEPTION!/THE/RECEIVER/WAS/OVER/THROWN!/AND/THE/DEFENDER/MAKES/THE/CATCH!~
INTERCEPTION!/THE/DEFENDER/CUTS/IN/FRONT/OF/THE/RECEIVER!/AND/CATCHES/THE/BALL!~
INTERCEPTION!/THE/BALL/WAS/UNDER/THROWN!/AND/THE/DEFENDER/MAKES/THE/CATCH!~
INTERCEPTION!/THE/QUARTERBACK/THREW/THE/BALL./AND/HIT/THE/DEFENDER/ON/THE/////////NUMBERS!~
INTERCEPTION!/THE/BALL/WAS/TIPPED/AT/THE/LINE/OF/SCRIMMAGE!/AND/THE/DEFENDER////CATCHES/IT!~
THE/QUARTERBACK/WAS/HIT/AS/HE/THREW/THE/BALL!/AND/THE/DEFENDER/CATCHES/IT!~
