HE/FALLS/DOWN!/AND/HE/GETS/UP!/AND/HE/GETS/TACKLED!~
HE/DODGES/AROUND!/AND/HE/GETS/TACKLED/HARD!~
HE/TAKES/THE/BALL,/AND/HE/RUNS/AROUND!/AND/IS/TACKLED!~
HE/DODGES/AROUND/LOOKING/FOR/A/OPENING!/BUT/HE/GETS/TACKLED/FROM/BEHIND!~
HE/GETS/TACKLED!/WHAT/A/CRUSHING/HIT!~
HE/STEPS/OUT/OF/BOUNDS.~
HE/RETURNS/THE/BALL/UP/THE/SIDELINE!/NO/HE/STEPPED/OUT/BACK/THERE!~
HE/GETS/TAKEN/DOWN/HARD!~
OH!/WHAT/A/HIT!/HE/GOT/TACKLED/DOWN/HARD!~
HE/RUNS/ACROSS/THE/FIELD/LOOKING/FOR/AN/OPENING./OH!/HE/GETS/TACKLED/DOWN!~
HE/RETREATS/BACK/LOOKING/FOR/AN/OPENING./AND/HE/GETS/TAKEN/DOWN!~
HE/TRIES/TO/GET/OUT/TO/THE/SIDELINE./AND/HE/GETS/TACKLED/DOWN!~
