THE/SNAP/IS/GOOD,/AND/THE/KICK/IS/UP!~
THE/SNAP/IS/HIGH!/BUT/HE/GETS/IT/DOWN!/AND/THE/KICK/IS/UP!~
HERE/COMES/THE/SNAP,/AND/THE/KICK/IS/UP!~
IT/IS/A/BAD/SNAP!/BUT/HE/GETS//IT/DOWN!/AND/THE/KICK/IS/UP!~
IT/IS/A/GOOD/SNAP,/AND/THE/KICK/IS/UP!~
HERE/IS/THE/SNAP./AND/ITS/DOWN./AND/THE/KICK/IS/UP!~
THE/SNAP/IS/DOWN./AND/THE/KICK/IS/UP!~
