7 3 1 4 6 0 -999 5 9 8 -3 3 5 -2 -1 5 6 1 4 3 2 3 7 -920 8 4 0 6 5 4
6 5 -3 -999 6 0 -2 5 2 3 -1 5 6 9 2 4 3 5 6 7 8 1 5 -920 4 3 7 0 2 1
117 116 115 -999 6 0 -9 118 9 119 3 8 1 -1 -920 -920 3 7 10 12 14 105 4 -2 102 0 -3 6 11 13
15 13 11 -999 6 0 1 12 14 -5 -2 8 2 5 1 3 -1 6 -3 10 5 6 4 7 -920 -920 0 6 8 9
15 200 16 -999 6 -910 28 3 9 5 7 14 -1 -950 -3 0 8 6 11 -4 10 -2 4 1 -910 -910 2 13 12 615
16 14 15 -999 6 -910 13 1 2 -910 12 5 202 -950 4 7 9 6 11 17 10 605 606 8 -910 -910 -910 607 3 615
6 5 7 -999 15 -910 -910 9 8 28 13 6 212 10 -950 12 15 17 18 19 14 16 -910 -910 -910 -910 -910 -910 11 615
47 42 34 -999 25 32 28 43 48 93 30 20 28 228 -910 -950 628 24 40 72 31 -910 -910 -950 -950 -950 -910 -910 46 628
114 -910 113 -999 6 -910 112 116 128 1 110 6 206 102 -950 5 104 107 111 115 8 -910 -910 -910 -910 -910 -910 3 109 615
768 755 733 734 737 738 735 750 762 727 761 728 740 745 744 749 741 740 736 760 753 739 743 747 748 740 742 746 758 756
-822 -835 -818 -823 -824 -826 -821 -833 -817 -812 -820 -825 -828 -837 -838 -839 -829 -825 -819 -834 -827 -831 -834 -832 -836 -835 -833 -830 -825 -998
857 858 878 874 872 856 873 859 879 870 885 877 855 862 864 863 854 850 880 871 876 860 866 867 869 868 865 861 875 855
426 412 400 409 400 408 400 416 430 -415 414 407 403 -999 402 400 404 406 413 406 435 453 -401 401 412 400 411 410 405 422
300 300 316 300 323 327 300 313 300 306 310 335 303 -302 300 315 302 306 314 300 331 305 300 300 301 300 300 -900 339 -999
561 525 -999 538 545 536 -999 568 547 -900 500 529 523 515 513 511 521 520 546 526 550 519 509 512 506 520 507 517 595 -999
11 12 13 14 15 16 17 18 19 20 21 22 23 24 24 23 22 21 20 19 18 17 16 15 14 13 12 11 11 12
1 1 1 1 1 1 1 1 1 1 1 1 1 1 1 1 1 1 1 1 1 1 1 1 1 1 1 1 1 1
0 0 0 0 0 601 601 601 0 0 0 0 0 0 0 0 0 0 0 0 0 0 601 0 0 0 0 600 0 -999
0 0 0 0 0 601 601 601 0 0 0 0 0 0 602 0 0 0 0 0 0 0 601 0 0 0 0 600 0 -999
0 0 0 0 0 0 0 0 -1 -1 601 601 601 0 0 0 0 0 0 0 0 0 601 0 0 0 0 -5 -7 -999
601 601 601 0 0 0 0 0 0 0 0 0 0 0 0 0 0 0 0 0 0 0 601 0 0 0 0 600 0 -999
0 0 602 0 0 602 0 0 -950 -999 0 601 600 -601 -606 602 0 0 0 0 0 0 603 0 2 0 610 615 620 -950
0 0 602 0 0 602 0 0 0 -999 0 0 602 0 0 601 601 601 0 0 0 0 603 0 0 10 10 10 -950 0
601 601 601 0 0 0 0 0 0 0 0 0 602 0 0 602 0 0 0 0 0 0 602 0 1 0 0 -950 0 212
0 0 0 0 228 20 20 20 0 -950 0 0 0 0 228 0 0 0 228 -950 -910 -910 228 -910 -20 -950 -20 -20 228 -20
0 0 602 0 0 0 0 0 0 212 0 0 602 0 0 601 601 601 0 0 0 0 603 0 0 0 0 -950 0 -999
13 16 48 29 10 11 42 17 14 15 31 12 35 15 22 21 28 18 44 25 19 16 13 12 10 11 14 17 26 20
12 11 6 2 1 -8 7 5 13 28 3 -11 -10 -6 -999 0 -9 -12 4 9 -13 -7 -3 -2 0 -1 -4 -6 -5 8
19
 
