THE/TIGHT/END/GOES/IN/MOTION.~
THE/WIDE/OUT/GOES/IN/MOTION.~
THE/WIDE/RECEIVER/GOES/IN/MOTION.~
THERE/IS/A/SHIFT/IN/THE/BACK/FIELD./AND/ONE/OF/THE/BACKS/STARTS/IN/MOTION.~
THE/END/GOES/IN/MOTION.~
THE/TIGHT/END/COMES/IN/MOTION/TOWARDS/THE/WIDE/RECEIVER.~
THE/TIGHT/END/GOES/IN/MOTION/AWAY/FROM/THE/WIDE/RECEIVER.~
THE/WIDE/RECEIVER/STARTS/IN/MOTION.~
THE/WIDE/OUT/STARTS/IN/MOTION.~
