THE/BACK/GETS/STOPPED/AT/THE/LINE/OF/SCRIMMAGE.~
THE/BACK/IS/POUNDED/DOWN!/AT/THE/LINE/OF/SCRIMMAGE.~
THE/BACK/IS/TAKEN/DOWN!/AT/THE/LINE/OF/SCRIMMAGE.~
THE/DEFENDER/COMES/UP./AND/STOPS/THE/PLAY/AT/THE/LINE.~
THE/PLAY/IS/STACKED/UP/AT/THE/LINE/OF/SCRIMMAGE.~
THE/PLAY/IS/STOPPED/AT/THE/LINE/OF/SCRIMMAGE.~
THE/DEFENCE/SWARMS/OVER/THE/PLAY!/AND/STOPS/THE/PLAY/AT/THE/LINE!~
THE/DEFENCE/swarm/and./tackle/THE/BACK/AT/THE/LINE/OF/SCRIMMAGE.~
THE/BACK/GETS/TO/THE/LINE/OF/SCRIMMAGE!/HE/SLIPS!/AND/is/TOUCHED/DOWN.~
THE/BACK/IS/CRUSHED/AND/POUNDED/DOWN/AT/THE/LINE/OF/SCRIMMAGE!~
THE/DEFENDERS/PLASTER/THE/RUNNING/BACK/AT/THE/LINE/OF/SCRIMMAGE!~
nice/play!/THE/DEFENDER/DOVE/grabbing/the//runners/legs!~
OH!/WHAT/A/HIT!/THE/DEFENDER/CRUNCHED/THE/BACK/AT/THE/LINE/OF/SCRIMMAGE!~
THE/BACK/IS/TRAPPED/IN/THE/BACK/FIELD./AND/OH!/HE/FIGHTS/HIS/WAY/BACK/TO/THE/////LINE!~
THE/DEFENDER/GRABS/HIM./AND/THROWS/THE/BACK/TO/THE/GROUND!/AT/THE/LINE/OF////////SCRIMMAGE~
THE/DEFENDER/TACKLES/THE/BACK/DOWN!~
THE/DEFENDER/GRABS/THE/BACK!/AND/THROWS/HIM/TO/THE/GROUND!~
OH!/THE/DEFENDER/GRABBED/THE/BACKS/FOOT//AS/HE/WAS/RUNNING/BY!/AND/HE/GOES///////DOWN!~
THE/DEFENDER/BURIED/THE/BACK./AND/THEY/ARE/SLOW/IN/GETTING/UP.~
THE/DEFENDER/RAPS/THE/BACK/UP./AND/TAKES/HIM/DOWN!~

