3 3 -999 5 6 0 5 2 9 8 -1 2 9 -2 -920 4  2 10 7 -3 2 3 0 6 4 5 1 8 6 1
4 5 -999 -1 6 0 5 2 3 7 2 10 0 3 0 -920 6 2 1 3 2 5 4 3 8 7 9 -2 -3 1
-6 -2 -999 4 6 0 8 5 -7 -8 2 0 6 2 9 7 2 3 5 -5 5 -3 3 -999 0 -1 4 10 1 -4
0 5 -999 -1 6 0 -3 2 1 9 4 9 10 2 7 8 3 6 5 1 4 1 3 6 -920 0 5 3 2 -2
200 13 -999 11 6 -910 2 1 -202 -206 -3 -2 3 8 10 -1 6 7 4 0 15 14 -910 -910 5 12 9 28 -4 16
16 10 -999 11 6 -910 15 17 13 18 19 7 206 8 3 5 9 28 12 14 2 -910 -910 -910 -910 -910 4 6 1 615
17 7 -999 6 15 -910 16 18 25 24 8 19 15 6 11 9 211 14 20 21 12 13 -910 -910 -910 -910 -910 10 615 28
51 40 -999 34 25 -910 35 42 50 66 36 28 37 32 -950 -950 221 30 39 54 -910 -910 -910 -910 -910 -910 -910 -950 625 48
10 105 -999 115 6 -910 16 106 112 -910 128 7 212 17 6 14 119 118 111 120 109 -910 -910 -910 -910 -910 13 108 104 615
757 732 734 728 733 749 735 731 755 760 744 739 745 746 741 742 748 740 736 754 753 747 737 738 740 740 743 751 756 752
-831 -837 -812 -814 -811 -817 -834 -836 -832 -834 -835 -825 -833 -830 -832 -831 -832 -825 -834 -833 -823 -830 -834 -835 -837 -836 -833 -831 -818 -830
874 870 862 865 866 860 867 872 885 880 859 863 868 855 852 854 858 850 856 873 864 869 855 851 849 850 853 857 861 871
401 409 405 439 411 414 422 400 408 412 435 415 406 443 404 402 -999 406 424 407 -401 416 403 400 401 400 421 413 -406 420
300 307 320 325 311 330 305 300 308 312 310 335 -999 300 -900 319 300 306 314 300 302 339 322 300 300 300 331 300 -900 301
-999 -999 564 -999 537 535 565 -999 -999 -900 542 530 516 529 518 514 522 520 595 540 524 521 512 510 506 520 512 545 528 568
11 12 13 14 15 16 17 18 19 20 21 22 23 24 24 23 22 21 20 19 18 17 16 15 14 13 12 11 11 12
1 1 1 1 1 1 1 1 1 1 1 1 1 1 1 1 1 1 1 1 1 1 1 1 1 1 1 1 1 1
0 0 0 0 0 601 601 601 0 0 0 0 0 0 0 0 0 0 0 0 0 0 602 0 0 0 0 600 0 -999
0 0 0 0 0 601 601 601 0 0 0 0 0 0 602 0 0 0 0 0 0 0 602 0 0 0 0 600 0 -999
0 0 0 0 0 0 0 0 0 0 601 601 601 0 0 0 0 0 0 0 0 0 601 0 0 0 0 600 0 -999
601 601 601 0 0 0 0 0 0 601 0 0 0 0 0 0 0 0 0 0 0 0 602 0 0 0 0 600 -4 -999
0 0 0 0 0 0 0 0 -950 -999 601 601 601 0 0 0 0 0 0 0 0 0 0 0 0 10 10 10 -950 -603
0 0 0 0 0 0 0 0 -950 -999 0 0 0 0 604 601 601 601 0 0 0 0 0 0 604 0 0 0 -950 0
601 601 601 0 0 0 0 0 0 -950 0 0 0 0 0 0 0 0 0 606 0 0 0 0 212 0 0 -950 0 -999
0 -910 0 -950 228 10 10 10 0 -950 -10 0 0 -950 228 0 0 -910 228 -950 -910 -910 228 -950 -15 -950 -10 -10 228 -20
0 0 0 0 0 0 0 0 0 -950 0 0 0 0 0 601 601 601 0 0 0 0 0 0 0 0 0 -950 0 206
12 17 13 12 11 10 14 18 11 13 15 20 19 16 13 14 18 27 16 10 28 17 15 12 10 11 22 21 60 19
109 8 3 1 10 6 5 4 17 27 -12 -9 -8 -5 -4 9 7 2 16 20 -10 -6 -13 -1 -3 -999 -2 -7 -11 -22
21

