-3 9 8 1 3 -2 7 4 6 8 4 6 2 5 3 -920 4 1 -1 3 9 8 5 6 0 5 3 0 4 -999
9 8 7 6 5 6 -999 9 5 2 7 6 4 -3 8 9 -2 2 3 8 4 7 -1 5 1 0 -920 0 1 7
5 7 2 3 6 2 3 4 -6 -13 -7 6 1 4 9 5 0 3 6 8 7 9 -1 -2 -3 -920 4 0 6 -999
2 4 3 7 1 7 -1 -2 -3 6 -999 6 4 6 0 5 4 3 8 2 4 1 9 6 -920 2 1 0 1 5
14 4 -999 28 19 8 5 3 1 7 11 6 18 610 -1 0 9 6 13 2 -910 -3 -910 -910 -2 -910 -950 15 17 16
1 7 12 11 9 -950 10 -950 3 205 28 6 13 -910 8 2 6 -950 -999 15 -910 5 -910 -910 -910 -910 -910 4 14 615
6 19 10 11 -950 12 16 15 20 21 -999 15 13 18 17 28 14 -910 -910 -910 -910 -910 -910 -910 -950 -910 -910 -910 9 615
71 630 -999 56 43 45 41 631 68 86 58 25 -910 38 228 33 44 51 65 74 54 42 -910 -950 -950 -910 -910 28 55 645
120 119 117 15 -950 113 -999 116 28 621 118 6 8 112 6 10 -950 -950 -950 122 114 -910 -910 -910 -910 -910 -910 111 9 615
729 733 730 761 740 744 734 731 728 724 748 749 750 747 735 742 738 739 736 759 758 737 743 746 740 740 745 728 741 732
-830 -833 -825 -998 -826 -825 -836 -835 -831 -812 -838 -837 -825 -830 -832 -831 -839 -827 -835 -832 -812 -829 -833 -834 -836 -835 -822 -828 -816 -800
885 877 874 870 854 864 871 878 875 880 872 865 862 859 855 860 863 866 873 879 867 857 861 856 869 868 855 850 858 876
428 402 400 412 406 -999 400 411 412 -900 400 400 400 406 415 404 409 400 400 432 410 407 403 474 401 400 405 408 413 414
300 300 300 300 306 -900 300 300 300 303 300 300 336 320 319 311 327 303 300 300 307 314 325 300 300 300 335 313 301 -999
528 544 510 500 520 522 560 538 527 530 549 518 520 512 508 506 -999 524 547 534 526 504 514 512 506 520 566 516 533 -502
11 12 13 14 15 16 17 18 19 20 21 22 23 24 24 23 22 21 20 19 18 17 16 15 14 13 12 11 11 12
1 1 1 1 1 1 1 1 1 1 1 0 0 0 1 1 1 1 1 1 1 1 1 1 1 1 1 1 1 1
0 0 0 0 0 601 601 601 0 0 0 0 0 0 0 0 0 0 0 0 0 0 0 0 0 2 0 0 600 -2
0 0 0 0 0 601 601 601 0 0 0 0 0 0 0 0 0 0 0 0 0 0 0 0 0 2 0 0 600 -4
0 0 0 0 0 0 0 0 0 0 601 601 601 0 0 0 0 0 0 0 0 0 0 0 0 3 0 0 600 0
601 601 601 0 0 0 0 0 0 0 0 0 0 0 0 0 0 0 0 0 0 0 0 0 0 3 0 0 610 -5
0 0 0 0 -5 0 0 0 -950 -950 600 -8 -8 -6 -2 0 0 0 0 0 0 0 0 0 0 10 10 10 0 -950
0 0 0 0 0 0 0 0 -950 -950 0 0 0 0 0 601 601 601 0 0 5 5 5 0 0 0 0 0 -950 -910
601 601 -950 0 0 10 10 10 0 0 10 10 10 0 0 10 10 10 0 0 0 0 0 0 0 0 0 0 -950 219
0 0 0 0 228 0 0 0 -950 -950 0 0 0 0 -910 0 0 0 -910 228 -910 -910 -910 228 0 -950 0 0 228 -910
10 10 10 0 0 0 0 0 0 0 0 0 0 0 0 601 601 -950 0 0 5 5 5 0 0 0 0 0 -950 -999
15 12 10 16 14 11 19 13 14 17 18 13 10 17 15 16 11 15 16 17 12 18 13 12 11 10 14 19 26 11
14 13 10 4 2 1 8 11 17 19 -14 -9 12 6 -3 -4 -8 -2 -13 -7 -11 -999 -5 -10 0 -1 -6 -7 -12 -12
19

