604 2 1 3 6 0 1 4 -3 602 3 5 4 -1 -2 2 607 6 5 1 9 -920 4 0 3 605 6 -920 8 -999
4 5 3 2 6 0 608 -999 4 5 6 -2 -920 -920 -3 0 4 607 3 9 6 4 1 3 2 7 -1 2 605 6
8 -2 4 1 6 0 5 -999 -4 6 5 6 4 8 7 -920 2 -1 604 -3 9 2 3 1 0 6 -920 2 5 1
4 2 3 6 6 0 -3 1 2 7 -1 3 8 6 -920 0 3 6 9 4 5 1 -920 2 4 607 4 3 -2 -999
-4 11 10 12 6 -910 9 -999 125 615 -3 7 -1 4 5 3 2 8 14 13 6 0 -910 -910 -910 -910 -910 1 -2 28
3 -999 12 206 6 -910 7 -950 11 17 6 5 10 28 4 1 9 8 2 15 13 16 -910 -910 -910 -910 -910 -910 14 615
5 8 17 16 15 -910 18 9 6 4 6 13 10 12 19 28 -950 14 11 7 15 212 -910 -910 -910 -910 -910 -910 615 -999
51 -999 33 32 25 -910 34 48 54 60 35 25 28 21 -950 -950 228 22 38 56 27 -910 -910 -910 -910 -910 -910 -910 28 628
615 -999 114 112 6 -910 113 117 -910 105 115 108 -950 6 28 6 7 109 116 118 111 -910 -910 -910 -910 -910 -910 212 110 615
766 728 749 732 747 748 731 730 758 706 750 740 742 744 734 745 743 733 756 754 735 740 746 738 739 740 737 741 736 751
-833 -822 -834 -828 -800 -825 -824 -829 -825 -812 -826 -825 -836 -832 -835 -833 -837 -811 -827 -832 -839 -831 -998 -836 -807 -837 -834 -830 -838 -835
872 871 868 866 863 862 865 873 874 880 869 850 859 849 854 855 858 864 867 875 861 856 851 850 855 852 853 857 860 870
410 400 -999 405 400 406 400 400 411 412 400 406 401 405 408 406 402 400 401 400 400 403 409 412 413 400 407 404 400 400
300 300 300 300 300 300 300 300 300 300 300 306 -900 306 328 312 300 300 300 300 300 301 309 330 341 300 300 306 300 -999
522 505 518 516 515 512 517 519 506 -515 520 520 507 508 504 523 510 513 524 503 511 -999 526 529 535 520 509 521 514 512
11 12 13 14 15 16 17 18 19 20 21 22 23 24 24 23 22 21 20 19 18 17 16 15 14 13 12 11 11 12
1 1 1 1 1 1 1 1 1 1 1 1 0 0 1 1 1 1 1 1 1 1 1 1 1 1 1 1 1 1
0 0 0 0 0 -1 -2 -3 -4 -5 0 0 0 0 0 0 0 0 0 604 0 0 0 0 0 0 5 0 600 600
0 0 0 0 0 -1 -2 -3 -4 -5 0 0 0 0 0 0 0 0 0 0 0 0 0 0 0 0 5 0 600 600
0 0 0 0 0 0 0 0 0 0 -1 -2 -3 -4 -5 0 0 0 0 0 0 0 0 0 0 0 5 0 600 600
-1 -2 -3 -4 -5 0 0 0 0 0 0 0 0 0 0 0 0 0 0 2 0 0 0 0 605 0 5 0 600 600
0 0 0 0 604 0 0 0 0 604 0 601 -601 -603 -604 0 0 0 0 0 5 5 5 0 0 15 15 15 5 -950
0 0 0 0 0 0 0 0 0 0 0 0 0 0 0 0 601 601 601 601 0 0 615 0 0 615 615 615 -950 212
0 601 601 601 601 15 15 15 0 0 615 615 615 0 0 6 6 6 0 0 615 0 0 0 1 0 0 0 -950 212
6 6 6 0 0 0 0 0 0 0 6 6 6 0 0 615 615 615 0 228 -910 -950 0 -910 -910 0 0 -950 -910 228
15 15 15 0 0 615 615 615 0 0 0 0 0 0 0 0 601 601 601 601 0 615 0 0 0 0 0 0 -950 212
10 17 14 29 20 26 13 18 16 11 12 28 19 16 12 14 10 21 11 19 41 18 13 14 10 11 15 17 71 15
12 11 5 7 1 9 8 10 13 14 4 6 -5 -11 -10 -14 0 -2 3 -20 -9 -8 -4 -999 -12 -7 -3 -6 -6 -1
15

