THE/RECEIVERS/ARE/SET/TO/THE/SAME/SIDE.~
THE/RECEIVERS/ARE/SPLIT/TO/EITHER/SIDE.~
THE/WIDE/RECEIVER/IS/SET/OUT/TO/THE/RIGHT.~
THE/WIDE/RECEIVER/IS/SET/OUT/TO/THE/LEFT.~
BOTH/RECEIVERS/ARE/SET/OUT/TO/THE/SAME/SIDE.~
