5 2 -999 3 6 0 5 4 8 9 6 7 0 10 5 -2 -1 5 9 5 5 4 1 -920 5 3 0 6 2 -3
8 5 -3 -1 6 0 -999 -2 7 9 6 8 5 0 2 1 5 8 5 9 8 3 6 0 3 -920 10 4 7 4
2 4 105 0 6 0 7 8 4 0 102 -3 -2 5 109 -920 1 10 -999 5 2 8 -920 3 0 1 6 -1 9 4
6 7 4 1 6 0 3 9 8 -4 -999 5 0 8 10 -3 -2 2 6 8 9 4 3 6 -920 0 -1 -920 6 7
-209 -999 -203 -3 6 -910 4 9 15 28 1 0 2 5 11 3 13 -1 12 14 -2 7 5 -910 -910 -910 6 -950 8 10
28 19 16 18 6 -910 10 -999 14 13 15 4 6 2 1 3 9 11 17 12 7 8 -910 -910 -910 -910 5 -950 205 615
-910 6 11 18 15 -910 10 28 7 17 13 16 14 15 8 12 15 212 19 -910 -910 -910 -910 -910 -910 -910 9 -950 625 -999
-910 50 33 29 25 -910 34 43 54 25 42 228 27 28 20 -910 -910 -910 -910 -910 -910 -910 -910 -910 -910 -910 -910 -950 632 -999
-910 -999 115 118 115 -910 114 116 105 128 111 107 6 6 9 8 12 113 117 104 212 -910 -910 -910 -910 -910 -910 -950 621 110
-999 750 756 760 734 736 735 754 729 722 752 751 740 740 744 745 728 755 757 738 742 737 746 747 743 730 748 741 739 749
-840 -836 -820 -812 -825 -810 -819 -837 -839 -842 -821 -840 -800 -830 -833 -831 -826 -824 -835 -841 -823 -828 -832 -834 -813 -816 -829 -827 -822 -838
880 876 871 870 868 869 874 875 877 878 872 864 850 860 857 859 863 866 873 879 867 862 856 855 855 851 858 861 865 885
400 400 402 400 405 407 400 400 400 400 400 406 412 -999 404 402 448 408 400 400 409 406 403 401 413 400 412 -401 423 400
329 300 300 300 313 317 304 300 300 312 305 311 306 300 300 300 300 378 306 301 359 300 314 -900 300 300 329 300 369 -999
525 520 522 524 530 521 523 528 527 528 532 520 -999 517 516 515 534 541 533 526 568 518 513 520 512 520 514 519 529 500
11 12 13 14 15 16 17 18 19 20 21 22 23 24 24 23 22 21 20 19 18 17 16 15 14 13 12 11 11 12
1 1 1 1 1 1 1 1 1 1 1 1 1 0 0 1 1 1 1 1 1 1 1 1 1 1 1 1 1 1
2 2 1 0 0 -1 -2 -3 -4 -5 2 2 1 0 0 2 2 2 0 0 2 2 1 0 0 2 2 2 600 -999
2 2 1 0 0 -1 -2 -3 -4 -5 0 0 0 0 0 2 2 2 0 0 2 2 1 0 0 2 2 2 600 -999
2 2 1 0 0 0 0 0 0 1 -1 -2 -3 -4 -5 2 2 2 0 0 2 2 1 0 0 4 4 -4 -5 -999
-1 -2 -3 -4 -5 0 0 0 0 0 2 2 1 605 0 2 2 2 605 605 2 2 1 0 605 2 2 2 600 -999
0 0 0 0 0 0 0 0 0 -999 0 601 601 601 601 0 0 0 0 -910 610 0 0 0 0 625 610 610 -4 -6
0 0 0 0 606 0 0 0 0 206 10 10 10 0 0 0 601 601 601 601 0 610 0 0 0 10 10 10 9 205
0 601 601 601 601 610 610 610 0 0 0 0 0 0 212 5 5 5 0 212 0 0 610 0 212 0 0 -950 615 212
10 10 10 0 228 10 15 20 0 0 615 615 615 0 228 615 615 615 0 228 -910 -910 0 228 -910 0 -950 0 615 228
610 610 610 0 212 10 10 10 0 0 0 0 0 0 212 0 601 601 601 601 5 5 5 0 212 0 0 -950 615 203
10 17 13 29 85 23 12 18 11 17 15 78 11 17 14 13 10 24 14 19 22 18 15 12 10 11 16 19 45 16
5 3 6 -12 -4 1 12 6 8 9 101 -11 -10 -6 -2 -4 -9 -5 -13 -12 -6 -7 -3 -1 -999 0 -5 -8 -7 -14
21
