THE/QUARTERBACK/TAKES/THE/SNAP.//AND/HANDS/THE/BALL/OFF/TO/THE/BACK.~
THE/QUARTERBACK/GETS/THE/BALL.//AND/HANDS/IT/OFF/TO/THE/BACK.~
THE/QB/GETS/THE/BALL,/HE/FAKES/TO/THE/FIRST/BACK,/THEN/HANDS/IT/OFF/DEEP.~
THE/QB/TAKES/THE/SNAP.//AND/HANDS/OFF/THE/BALL/TO/THE/BACK.~
THE/QUARTERBACK/TAKES/THE/SNAP.//AND/HANDS/THE/BALL/TO/THE/SECAND/BACK/THREW.~
THE/QUARTERBACK/GETS/THE/BALL.//AND/HANDS/IT/OFF/DEEP.~
THE/QB/TAKES/THE/SNAP.//AND/TOSSES/THE/BALL/TO/THE/BACK.~
THE/QUARTERBACK/GETS/THE/BALL.//AND/TOSSES/IT/TO/THE/BACK.~
THE/QUARTERBACK/TAKES/THE/SNAP./AND/TOSSES/IT/TO/THE/BACK.~
THE/QUARTERBACK/TAKES/THE/SNAP.//AND/OH!/THE/BACK/ALMOST/FUMBLES/THE/HANDOFF!~
