5 1 -3 5 0 6 9 2 4 6 7 5 -1 605 604 0 606 -2 3 6 9 3 2 4 -920 8 5 1 3 -999
5 9 8 5 0 6 7 5 2 6 -3 1 3 606 7 -1 3 4 1 5 -999 0 -2 2 605 -920 604 603 4 -999
105 6 8 5 0 6 5 6 4 6 4 0 8 607 3 -920 2 3 4 1 8 9 6 -1 -3 -2 -920 605 4 -999
5 4 1 5 0 6 5 3 6 6 2 1 9 0 -920 606 -3 8 7 4 603 -1 -920 604 1 2 7 -2 605 -999
4 9 -1 15 -910 6 8 7 17 200 16 -3 -2 11 10 3 12 6 -999 13 5 0 2 18 -910 -910 1 14 -950 -6
6 3 10 14 -910 6 17 18 12 28 -999 4 11 5 1 -950 9 206 19 13 15 7 2 -910 -910 -910 -910 8 16 615
28 19 18 6 -910 15 -999 7 12 -910 15 212 6 11 -950 -950 10 16 13 14 8 -910 -910 -910 -910 -910 -910 617 617 9
53 -999 21 25 -910 25 33 41 45 25 39 632 -950 -950 -950 -950 -950 28 40 42 228 -910 -910 -910 -910 -910 -910 -910 620 628
118 117 -999 12 -910 6 111 14 115 128 109 116 6 610 -950 -950 6 108 12 113 107 -910 119 -910 -910 -910 -910 -910 212 615
-998 728 755 751 734 737 732 756 758 764 733 740 742 745 746 749 744 736 735 761 739 741 748 747 753 740 743 738 740 757
-810 -806 -822 -823 -825 -835 -821 -812 -804 -802 -818 -825 -828 -832 -834 -833 -829 -826 -816 -808 -837 -831 -836 -825 -838 -820 -830 -827 -824 -814
885 871 867 872 852 876 870 868 875 880 854 853 850 851 861 858 863 855 866 865 856 855 864 862 850 869 859 857 860 873
420 400 408 407 413 -999 400 400 400 400 400 406 400 404 414 412 400 409 408 412 410 406 403 411 433 400 402 405 400 401
300 300 300 300 315 300 300 300 300 301 300 306 328 317 316 312 334 302 300 300 305 313 300 300 304 300 300 -900 319 -999
520 522 508 517 -999 506 504 519 523 524 506 520 512 509 507 516 515 503 505 521 514 511 532 528 546 520 531 510 513 518
11 12 13 14 15 16 17 18 19 20 21 22 23 24 24 23 22 21 20 19 18 17 16 15 14 13 12 11 11 12
1 1 1 1 1 1 1 1 1 1 1 1 1 1 1 1 1 1 1 1 1 1 1 1 1 1 1 1 1 1
0 0 0 0 0 601 601 601 0 0 0 0 0 0 0 0 0 0 0 603 0 -1 0 0 601 0 0 600 0 -999
0 0 0 0 0 601 601 601 0 -999 0 0 0 0 0 0 0 0 0 0 0 -1 0 0 0 0 0 600 0 -999
0 0 0 0 0 0 0 0 0 -999 601 601 601 0 0 0 0 0 0 0 0 -1 0 0 0 0 0 -4 -6 -7
601 601 601 0 0 0 0 0 0 -999 0 0 0 0 0 0 0 0 0 0 0 -1 0 0 0 0 0 600 0 -999
0 0 0 0 0 0 0 0 -910 200 -601 -601 -602 -602 -605 0 0 0 0 0 10 0 0 0 0 15 15 15 0 0
0 0 0 0 0 0 0 0 -910 206 0 0 0 0 -910 601 601 601 0 0 10 0 0 0 0 610 612 615 0 0
601 601 601 0 0 10 10 10 0 0 0 0 0 0 0 10 10 10 0 0 10 0 0 0 0 0 0 -950 0 0
0 0 0 0 228 620 620 620 0 0 10 10 10 0 228 0 0 -910 228 0 -910 -910 228 0 0 0 -950 -910 228 -900
10 10 10 0 0 0 0 0 0 0 0 0 0 0 0 601 601 601 0 0 10 10 10 0 0 0 0 -950 0 11
10 19 15 26 20 45 13 18 11 12 12 37 11 17 16 15 10 33 14 19 23 19 14 12 10 11 13 18 38 17
15 13 10 5 7 4 9 11 16 33 -12 -9 -7 -5 19 2 -6 -8 -13 -14 -10 -4 -2 -999 0 -1 -3 1 -11 -6
17

