ITS/A/SQUIB/KICK./BOUNCING/ALONG/THE/RIGHT/SIDELINE.~
ITS/A/SQUIB/KICK./BOUNCING/ALONG/THE/LEFT/SIDE/LINE.~
ITS/A/SQUIB/KICK./BOUNCING/THROUGH/THE/MIDDLE/OF/THE/FIELD.~
ITS/A/SQUIB/KICK./BOUNCING/DOWN/FIELD.~
ITS/A/HIGH/SHORT/KICK./LOBBED/DOWN/THE/RIGHT/SIDELINE.~
ITS/A/HIGH/SHORT/KICK./LOBBED/DOWN/THE/LEFT/SIDELINE.~
ITS/A/HIGH/SHORT/KICK./LOBBED/DOWN/THE/MIDDLE/OF/THE/FIELD.~
ITS/A/HIGH/SHORT/KICK./LOBBED/DOWN/FIELD.~
ITS/A/HARD/LOW/KICK./BOUNDING/DOWN/THE/RIGHT/SIDE.~
ITS/A/HARD/LOW/KICK./BOUNDING/DOWN/THE/LEFT/SIDE.~
ITS/A/HARD/LOW/KICK./BOUNDING/DOWN/THE/MIDDLE/OF/THE/FIELD.~
ITS/A/HARD/LOW/KICK./BOUNDING/DOWN/FIELD.~
