HE./IS./GOING./ALL./THE./WAY./TOUCHDOWN!~
HE./IS./GOING./ALL./THE./WAY./FOR./THE./SCORE!~
THERE/IS/NO/ONE/GOING/TO/CATCH/HIM!/TOUCHDOWN!~
TOUCHDOWN!/NO/ONE/COULD/STOP/HIM!~
TOUCHDOWN!/HE/WAS/NOT/GOING/TO/BE/DENIED!~
WHAT/A/NICE/MOVE/TO/GET/IN/TO/THE/END/ZONE!/TOUCHDOWN!~
HE/IS/GOING/ALL/THE/WAY!/TOUCHDOWN!~
