-999 -2 8 4 6 0 -3 1 4 3 9 4 3 2 -920 3 4 6 4 0 3 7 0 5 5 5 2 -1 5 5
-999 1 -2 4 6 0 2 -3 5 4 4 5 6 8 0 6 7 3 8 4 7 -1 8 5 3 6 -920 9 1 4
-999 -7 8 4 6 0 3 7 -6 0 1 105 10 0 -2 6 4 1 6 2 4 2 105 -3 103 -920 9 -101 1 5
-999 2 9 4 6 0 6 9 -1 12 8 10 -3 5 6 2 4 8 11 7 8 -2 1 7 -920 6 3 1 0 7
15 13 9 14 6 -910 1 11 16 -208 10 -2 28 -1 12 3 8 4 2 -3 7 -910 -910 605 6 10 5 0 -910 -999
11 1 12 13 6 -910 14 17 -999 -910 9 15 615 28 3 5 4 7 -910 16 1 2 -910 -910 -910 6 8 3 610 205
212 18 619 6 6 -910 615 17 -999 28 12 610 6 15 7 10 11 16 612 19 -950 -910 -910 14 -910 -910 -910 611 -910 13
53 228 -999 625 25 -910 34 45 55 58 30 28 -910 39 -950 -950 31 40 37 -910 -910 -910 -910 -910 -910 -910 -910 -910 -910 640
115 118 117 -950 6 -910 116 114 -999 111 103 6 105 109 28 104 615 108 112 212 110 -910 -910 -910 13 -910 -910 6 -910 107
762 725 756 735 740 752 755 728 764 721 754 749 728 738 741 736 744 747 757 760 737 743 746 740 739 740 748 745 742 729
-827 -827 -828 -831 -832 -836 -830 -827 -827 -827 -800 -825 -825 -837 -827 -827 -827 -835 -829 -827 -834 -827 -827 -827 -827 -827 -827 -827 -833 -800
876 862 863 867 856 857 864 868 870 880 865 858 850 853 851 852 855 859 866 873 860 854 849 848 846 847 850 855 869 861
411 400 412 412 406 405 418 400 400 402 414 400 413 450 -401 404 407 408 400 409 410 406 402 401 400 400 403 420 -999 400
300 -999 300 -303 306 300 300 300 300 -900 300 313 323 319 300 300 363 304 300 300 311 326 303 300 301 300 312 322 306 300
535 525 523 522 520 518 524 526 537 521 520 509 517 516 511 513 514 -999 -999 530 519 515 506 512 547 520 510 529 544 500
11 12 13 14 15 16 17 18 19 20 21 22 23 24 24 23 22 21 20 19 18 17 16 15 14 13 12 11 11 12
1 1 1 1 1 1 1 1 1 1 1 1 0 0 1 1 1 1 1 1 1 1 1 1 1 1 1 1 1 1
0 0 0 0 0 -5 -4 -3 -2 -1 0 0 0 0 0 0 0 0 0 0 0 0 0 0 605 2 0 600 0 -999
0 0 0 0 0 -5 -4 -3 -2 -1 0 0 0 0 0 0 0 0 0 0 0 0 0 0 0 2 0 600 0 0
0 0 0 0 0 0 0 0 0 0 -5 -4 -3 -2 -1 0 0 0 0 0 0 0 0 0 0 4 0 600 -5 -5
-5 -4 -3 -2 -1 0 0 0 0 0 0 0 0 0 605 0 0 0 0 605 0 0 0 605 605 3 0 600 0 -4
0 0 0 0 0 0 0 0 0 -950 601 601 601 0 0 0 0 0 0 0 0 0 0 0 -1 10 10 10 0 -15
0 0 0 0 0 0 0 0 0 206 0 0 0 0 0 601 601 601 0 0 0 0 0 0 -1 0 0 0 615 202
601 601 601 0 212 0 0 0 615 620 0 0 0 0 605 0 0 0 0 212 -3 -1 0 -1 212 0 0 -950 0 212
-7 -7 -7 228 0 0 0 0 0 228 -7 -7 -7 228 0 -7 -7 -7 228 0 -950 -950 228 -9 -10 -950 0 0 0 228
0 0 0 0 0 10 10 10 0 0 0 0 0 0 212 601 601 601 0 212 0 0 0 0 212 0 0 -950 0 223
14 19 15 14 12 13 16 18 16 15 17 26 11 17 15 16 10 22 18 17 23 18 14 12 11 10 13 19 31 19
6 9 -4 5 1 6 7 2 12 16 -13 -3 -10 -999 -5 -6 -9 -11 -12 -14 -2 -7 -3 -2 0 -1 -4 -8 -6 -12
14

