61
@A/WINE/BOTTLE~SRJNK1.WAV`0!
@A/GLASS/CANDLE/STICK~SRJNK2.WAV`0!
@A/PLATE/GLASS/WINDOW~SRJNK3.WAV`2!
@A/TIN/CAN~SRJNK4.WAV`0!
@A/BAG/OF/GARBAGE~SRJNK5.WAV`2!
@A/CAR/WINDSHIELD~SRJNK6.WAV`2!
@A/GRAY/RAT~SRJNK7.WAV`0!
@A/TV/PICTURE/TUBE~SRJNK8.WAV`1!
@A/FIVE/GALLON/WATER/BOTTLE~SRJNK9.WAV`1!
@A/FLORESCENT/LIGHT/BULB~SRJNK10.WAV`1!
@AN/INCANDESCENT/LIGHT/BULB~SRJNK11.WAV`0!
@A/BICYCLE/WHEEL/RIM~SRJNK12.WAV`1!
@A/CERAMIC/FLOWER/POT~SRJNK13.WAV`1!
@A/SODA/BOTTLE~SRJNK14.WAV`0!
@A/BEER/BOTTLE~SRJNK15.WAV`0!
@A/TELEPHONE~SRJNK16.WAV`0!
@A/CAR/HEADLIGHT~SRJNK17.WAV`0!
@A/TIN/CAN~SRJNK18.WAV`0!
@A/STEEL/POT~SRJNK19.WAV`1!
@A/PROPANE/TANK~SRJNK20.WAV`1!
@A/PROPANE/TANK~SRJNK21.WAV`1!
@A/BICYCLE/FENDER~SRJNK22.WAV`1!
@AN/AUTOMOBILE/TIRE~SRJNK23.WAV`1!
@A/TIN/CAN~SRJNK24.WAV`0!
@A/PAINT/SPRAY/CAN~SRJNK25.WAV`0!
@A/CAR/WINDSHIELD~SRJNK26.WAV`2!
@AN/ALARM/CLOCK~SRJNK27.WAV`0!
@A/COO/COO/CLOCK~SRJNK28.WAV`1!
@A/COO/COO/CLOCK~SRJNK29.WAV`1!
@A/CAN/OF/SHAVING/CREAM~SRJNK30.WAV`0!
@A/BAG/OF/GARBAGE~SRJNK31.WAV`2!
@AN/ENGINE/BLOCK~SRJNK32.WAV`1!
@A/COMPUTER~SRJNK33.WAV`1!
@A/REFRIGERATOR~SRJNK34.WAV`2!
@A/REFRIGERATOR~SRJNK35.WAV`2!
@A/MELLON~SRJNK36.WAV`1!
@AN/OIL/DRUM~SRJNK37.WAV`2!
@A/RADIO~SRJNK38.WAV`1!
@A/PLATE/GLASS/WINDOW~SRJNK39.WAV`2!
@A/BEER/BOTTLE~SRJNK40.WAV`0!
@A/CERAMIC/STATUE~SRJNK41.WAV`1!
@A/WINE/BOTTLE~SRJNK1.WAV`0!
@A/TIN/CAN~SRJNK4.WAV`0!
@A/FIVE/GALLON/WATER/BOTTLE~SRJNK9.WAV`1!
@A/SODA/BOTTLE~SRJNK14.WAV`0!
@A/BEER/BOTTLE~SRJNK15.WAV`0!
@A/TIN/CAN~SRJNK18.WAV`0!
@A/TIN/CAN~SRJNK24.WAV`0!
@A/PAINT/SPRAY/CAN~SRJNK25.WAV`0!
@A/CAN/OF/SHAVING/CREAM~SRJNK30.WAV`0!
@A/BEER/BOTTLE~SRJNK40.WAV`0!
@A/WINE/BOTTLE~SRJNK1.WAV`0!
@A/TIN/CAN~SRJNK4.WAV`0!
@A/FIVE/GALLON/WATER/BOTTLE~SRJNK9.WAV`1!
@A/SODA/BOTTLE~SRJNK14.WAV`0!
@A/BEER/BOTTLE~SRJNK15.WAV`0!
@A/TIN/CAN~SRJNK18.WAV`0!
@A/TIN/CAN~SRJNK24.WAV`0!
@A/PAINT/SPRAY/CAN~SRJNK25.WAV`0!
@A/CAN/OF/SHAVING/CREAM~SRJNK30.WAV`0!
@A/BEER/BOTTLE~SRJNK40.WAV`0!
