 530           339           76            201 
The Donald Brown Adventures
 6             1             8 
The Lair of the Minotaur
 92 
 38 
 10 
 10 
 1 
 1 
 1 
 1 
 6 
Castle of Doom
 58 
 55 
 10 
 19 
 98 
 43 
 11 
 16 
 6 
The Death Star
 90 
 21 
 10 
 8 
 161 
 103 
 21 
 40 
 6 
Assault on the Clone Master
 30 
 25 
 10 
 21 
 256 
 129 
 31 
 53 
 6 
The Tomb of Molinar
 51 
 36 
 10 
 10 
 291 
 159 
 41 
 79 
 6 
The Lost Island of Apple
 49 
 27 
 10 
 15 
 347 
 200 
 51 
 94 
 6 
The Castle of Count Fuey
 46 
 47 
 10 
 17 
 401 
 232 
 61 
 114 
 6 
The Rescue Mission
 79 
 56 
 6 
 66 
 452 
 284 
 71 
 136 
 6 
