 101 
General Help.
 1             6 
The Magic Kingdom  --  How do I escape The Magic Kingdom?
 7             1 
The Magic Kingdom  --  Where is the princess?
 8             1 
The Magic Kingdom  --  How do I get into the mine?
 9             1 
The Magic Kingdom  --  How do I get past the dock guard?
 10            1 
The Magic Kingdom  --  How do I kill the dragon?
 11            2 
The Caves of Treasure Island -- Watch out!
 13            1 
The Caves of Treasure Island -- How do I escape the quicksand?
 14            1 
The Caves of Treasure Island -- Where can I find a source of light?
 15            1 
The Caves of Treasure Island -- How do I open the locked doors?
 16            1 
The Caves of Treasure Island -- What's the shovel/harp/potion for?
 17            1 
The Caves of Treasure Island -- Differences from original version.
 18            1 
Furioso -- How do I get out of the dark?
 19            2 
Furioso -- Where's my weapons/armor/gold?
 21            1 
Furioso -- Help!  The ship's sinking!
 22            1 
Furioso -- What's with the cards?
 23            1 
Furioso -- What about the wizard?
 24            2 
Furioso -- Which ship should I choose?
 26            4 
Furioso -- Differences from original version.
 30            1 
Merlin's Castle -- What exactly am I supposed to be doing here?
 31            2 
Merlin's Castle -- How do I pass the Elves?
 33            1 
Merlin's Castle -- Notes.
 34            3 
Hogarth Castle -- Notes & tips.
 37            4 
Hogarth Castle -- How do I survive the wizard's spell?
 41            1 
Hogarth Castle -- How do I find/free Rowina
 42            2 
The Senator's Chambers -- How do I unlock the oak door?
 44            4 
Tower of London -- How do I get into the tower / How do I get home?
 48            1 
Death's Gateway -- How do I get up the icy stairs?
 49            1 
Death's Gateway -- How do I cross the water filled room?
 50            1 
Death's Gateway -- How do I get past gate1?
 51            1 
Death's Gateway -- How do I get past gate2?
 52            1 
Death's Gateway -- How do I get past gate3?
 53            1 
Death's Gateway -- How do I get past gate4?
 54            1 
Death's Gateway -- How do I get past gate5?
 55            1 
Death's Gateway -- How do I flee from/slay the mimic?
 56            1 
Death's Gateway -- How do I climb the greased pole?
 57            1 
Death's Gateway -- How do I get out of here?
 58            1 
Death's Gateway -- Notes.
 59            1 
Death's Gateway -- For your amusement...
 60            3 
The Lair of Mutants -- New command.
 63            2 
The Lair of Mutants -- How do I get home?
 65            1 
The Lair of Mutants -- How do I get the full reward?
 66            2 
How do I open the locked case?
 68            1 
How do I get home?
 69            1 
How do I open the steel door?
 70            1 
How do I get past the bricked doorway?
 71            1 
How do I ASSEMBLE powder?
 72            1 
How do I ASSEMBLE a bomb?
 73            1 
How do I get the pistil from the plant?
 74            1 
Priests of Xim! -- I can't afford the entry fee!
 75            1 
Priests of Xim! -- What's the password?
 76            2 
Priests of Xim! -- How do I open the doors?
 78            1 
Priests of Xim! -- How do I get past the 'strange force'?
 79            2 
Priests of Xim! -- Help!  I'm trapped above the moat!
 81            2 
Priests of Xim! -- Where can I find a good rope ladder/torch?
 83            1 
Priests of Xim! -- Magic word.
 84            1 
Priests of Xim! -- New commands.
 85            1 
Behind the Sealed Door -- How do I open the sealed door?
 86            1 
Behind the Sealed Door -- How do I open the crystal barriers?
 87            1 
Behind the Sealed Door -- How do I survive the pit?
 88            1 
Behind the Sealed Door -- How do I beat the Medusa?
 89            1 
Behind the Sealed Door -- How do I slay the big guy?
 90            1 
Behind the Sealed Door -- Other stuff.
 91            1 
How do I cross the chasm?
 92            1 
What is the crystal cross for?
 93            1 
What is the blue pearl for?
 94            1 
What is the belt for?
 95            2 
What is the pink scroll for?
 97            1 
How do I defeat Dark One/Demonstar/Stormbringer?
 98            1 
What is the answer to the riddle?
 99            1 
How do I find the Rooms of Mystery?
 100           1 
How do I escape the Rooms of Mystery?
 101           1 
The Land of Death -- How do I survive the mist?
 102           1 
The Land of Death -- Can I read the book without dying?
 103           1 
The Land of Death -- What do I do at Cooper's Obelisk?
 104           1 
The Land of Death -- How do I open the barrier?
 105           1 
The Land of Death -- What's the crystal for?
 106           1 
The Land of Death -- What good is the magic box?
 107           1 
The Land of Death -- How come I can't READY Glasnar?
 108           2 
The Land of Death -- Glasnar killed me!
 110           1 
House on Eamon Ridge -- Where can I get a weapon?
 111           1 
House on Eamon Ridge -- Can I get my stuff back from the pirates?
 112           2 
House on Eamon Ridge -- Can I get my gold back?
 114           1 
House on Eamon Ridge -- How do I get past the force walls?
 115           1 
House on Eamon Ridge -- Can I get my stuff back from the Dark One?
 116           2 
House on Eamon Ridge -- What is the crystal cross for?
 118           1 
House on Eamon Ridge -- What does the white scroll do?
 119           1 
House on Eamon Ridge -- How can I get home?
 120           5 
The Life-Orb of Mevtrelek -- New commands.
 125           2 
The Life-Orb of Mevtrelek -- My lamp went out!
 127           2 
The Life-Orb of Mevtrelek -- How do I open the red gate?
 129           1 
The Halls of the Adept -- New commands.
 130           1 
The Halls of the Adept -- How do I open the chest?
 131           1 
The Halls of the Adept -- How do I open the cage?
 132           2 
The Halls of the Adept -- What good is the 'Death Mask'?
 134           1 
The Halls of the Adept -- What is the black talisman for?
 135           1 
The Halls of the Adept -- How do I defeat Lucifer?
 136           1 
The Halls of the Adept -- What is the amulet for?
 137           1 
The Halls of the Adept -- Where is the Princess?
 138           1 
The Halls of the Adept -- New spells.
 139           4 
The Halls of the Adept -- How do I escape the Elf Demise Room?
 143           2 
