 15 
EAMON DELUXE 5.0 GENERAL HELP.
 1             8 
Read me! (Special notes about this adventure.)
 9             2 
What do I do in the library?
 11            2 
How do I open the western door?
 13            2 
Is there anything special in the King's quarters?
 15            1 
What do I do with the cauldron?
 16            1 
It's dark!
 17            1 
How do I open the portcullis?
 18            2 
How can I enter the forest?
 20            1 
How can I get down into the pit?
 21            2 
Can my friends climb into or out of the pit?
 23            1 
What do I do about the lich?
 24            3 
How do I defeat the Necromancer?
 27            3 
What do I have to do to successfully complete the Quest?
 30            1 
Cheat code. (SPOILER ALERT!)
 31            2 
