 5 
EAMON DELUXE 5.0 GENERAL HELP.
 1             8 
How do I use the Eamon Railroad?
 9             3 
How do I escape the Main Hall?
 12            3 
How can I recover the Runcible Cargo?
 15            3 
Can I beat the adventure without capitulating to the bandits?
 18            2 
