 642           584           480           349 
The Nathan Segerlind Adventures
 10            3             9 
The Computer Club of Fear
 63 
 62 
 12 
 48 
 1 
 1 
 1 
 1 
 10 
Lost!
 70 
 77 
 6 
 39 
 64 
 63 
 13 
 49 
 6 
The Lake
 67 
 45 
 5 
 27 
 134 
 140 
 19 
 88 
 6 
Pathetic Hideout of Mr. R.
 96 
 44 
 53 
 42 
 201 
 185 
 24 
 115 
 6 
The Lair of Mr. Ed
 89 
 48 
 69 
 58 
 297 
 229 
 77 
 157 
 6 
The Bridge of Catzad-Dum
 74 
 92 
 51 
 36 
 386 
 277 
 146 
 215 
 6 
Monty Python & the Holy Grail
 77 
 77 
 83 
 33 
 460 
 369 
 197 
 251 
 6 
Ragnarok Revisited
 44 
 66 
 91 
 25 
 537 
 446 
 280 
 284 
 6 
Attack of the Kretons
 62            73            110           41 
 581           512           371           309           6 
