 58 
General Help.
 1             6 
How do I survive the legion of guards?
 7             1 
How do I get past the dragon?
 8             3 
How to teleport.
 11            1 
Where is the Sacred Book of Mithra?
 12            1 
Where is Mithra's Medallion?
 13            1 
Where is Mithra's Amulet?
 14            1 
Where are the missing pages to the Sacred Book?
 15            1 
FutureQuest -- Changed commands.
 16            1 
FutureQuest -- Where can I find some friends?
 17            1 
FutureQuest -- How do I defeat the tank?
 18            1 
FutureQuest -- How do I break the force field?
 19            1 
FutureQuest -- How do I open doors/force fields?
 20            1 
FutureQuest -- How do I use the computers and stuff?
 21            1 
FutureQuest -- How do I activate the transporter to go home?
 22            2 
DharmaQuest -- New commands.
 24            1 
DharmaQuest -- Where are all the stone tablets of Kor?
 25            3 
DharmaQuest -- How can I avoid killing the sacred bull?
 28            1 
DharmaQuest -- How can I avoid killing the Sacred Python?
 29            1 
DharmaQuest -- What is the answer to the riddle?
 30            1 
DharmaQuest -- What is the Black Wizard's name?
 31            1 
DharmaQuest -- Where is the Black Wizard?
 32            3 
DharmaQuest -- Help!  I'm stuck someplace and can't find an exit!
 35            1 
New commands.
 36            2 
How do I get home?
 38            2 
How do I destroy the tank/starfighter/helicopter?
 40            1 
What do I do with the pods?
 41            1 
The Zungshh villagers took all of my stuff!
 42            1 
Useful info.
 43            1 
Access codes.
 44            1 
How do to get past strange barriers/into secret rooms?
 45            2 
The Last Dragon -- Can I avoid paying the boat fee?
 47            1 
The Last Dragon -- How do I enter the large cave?
 48            1 
The Last Dragon -- How do I get Invictus?
 49            1 
The Last Dragon -- How do I pass the golden light?
 50            1 
The Last Dragon -- How do I defeat Vincingotrix?
 51            1 
The Last Dragon -- How do I defeat the hatchlings?
 52            1 
The Last Dragon -- How do I get the hatchlings back?
 53            1 
The Last Dragon -- What do I do with the ice slab?
 54            1 
The Last Dragon -- Invictus was taken away!
 55            1 
Rhadshur Warrior -- Magic words.
 56            1 
Rhadshur Warrior -- How do I install the PC boards?
 57            1 
Rhadshur Warrior -- How do I get Zarg's attention.
 58            1 
Rhadshur Warrior -- Where are the Eyes of Rhatek?
 59            1 
Rhadshur Warrior -- Help!  All my stuff was stolen!
 60            1 
Rhadshur Warrior -- What do I do with the mystic pool?
 61            1 
Rhadshur Warrior -- How do I defeat Mardek?
 62            1 
Rhadshur Warrior -- Where do I find the orb?
 63            1 
Rhadshur Warrior -- Where is Threndor Tokas?
 64            1 
Rhadshur Warrior -- How do I get home?
 65            1 
The Black Phoenix -- New commands.
 66            2 
The Black Phoenix -- Magic words.
 68            1 
The Black Phoenix -- How to complete mission 1.
 69            1 
The Black Phoenix -- How to complete mission 2.
 70            2 
The Black Phoenix -- How to complete mission 3.
 72            2 
The Black Phoenix -- How to complete mission 4.
 74            2 
The Black Phoenix -- How to complete mission 5.
 76            3 
The Black Phoenix -- How to complete mission 6.
 79            2 
