ADVENTURE #00




No reviews have been written for this adventure collection yet.











<paws>
ADVENTURE #01




Review for this adventure:

IT WAS GREAT!








<paws>
ADVENTURE #02




Review for this adventure:

IT WAS GREAT!








<paws>
ADVENTURE #03
