 12 
EAMON DELUXE 5.0 GENERAL HELP.
 1             8 
New command.
 9             1 
Help! I'm hopelessly outnumbered!
 10            1 
Where can I find a good source of light?
 11            3 
How do I open the gates?
 14            1 
I'm being attacked in the dark and can't fight back!
 15            1 
One of my companions died!
 16            1 
Can I trust Gollum?
 17            1 
How do I open the locked chest?
 18            1 
How do I get into the mines?
 19            1 
How do I defeat Mograf?
 20            1 
Where is Thror's Ring?
 21            1 
