 19 
EAMON DELUXE 5.0 GENERAL HELP.
 1             8 
The Beginner's Cave -- New command.
 9             1 
The Beginner's Cave -- How can I keep from getting burned?
 10            2 
Alternate Beginner's Cave -- How do I kill the Mud-Logger Wasp?
 12            2 
Secrets of the Alternate Beginner's Cave. (For your amusement...)
 14            5 
Beginner's Forest -- Help! There are too many spooks!
 21            1 
Secrets of the Beginner's Forest. (For your amusement...)
 22            5 
All secrets revealed for Beginner's Cave II. (Spoiler Alert!)
 27            1 
New command.
 30            1 
How can I keep from getting burned?
 31            2 
All secrets of the Enhanced Beginner's Cave Revealed. (Spoiler alert!)
 33            2 
What do I do in the Norse mural room?
 37            1 
What do I do with the Hammer of Thor?
 38            1 
What do I do about the Emerald Warrior?
 39            1 
Help! I had an unrequested sex change!
 40            1 
My torch keeps running out!
 41            1 
What do I do with Bozworth?
 42            1 
All secrets of the Training Ground revealed. (Spoiler alert!)
 43            6 
Notes about the Eamon Deluxe 5.0 Demo Adventure.
 51            1 
