 284           346           183           110 
The Lost Treasures of Eamon
 6             5             5 
The Ice Caves Deluxe
 41 
 29 
 14 
 8 
 1 
 1 
 1 
 1 
 6 
Cronum's Castle
 41 
 66 
 10 
 25 
 42 
 30 
 15 
 9 
 6 
Lord of the Underland
 50 
 36 
 27 
 19 
 83 
 96 
 25 
 34 
 6 
The Adventurer's General Store
 98 
 108 
 51 
 36 
 133 
 132 
 52 
 53 
 6 
The Sub-Aquan Laboratory
 54            107           81            22 
 231           240           103           89            10 
