24
P/C/S/DUCK/HUNT. 40
GRAB/YOUR/SHOTGUN,/A/BOX/OF/SHELLS/AND/GO/DUCK/HUNTING!
P/C/S/SPACE/INVADERS. 40
CAN/YOU/SAVE/EARTH/FROM/THE/HOARDS/OF/SPACE/INVADERS?
SNIPE/HUNT. 40
TAKE/A/FLASHLIGHT/AND/A/SACK/AND/LETS/GO/SNIPE/HUNTING!
RED/DRAGON/KICK/BOXING/CHALLENGE. 30/OR/40
GO/A/FEW/ROUNDS/IN/THIS/GAME/FOR/FAST/ACTION/LOVERS.
PACK/MAN. 30/OR/40
EAT/FRUIT/AND/AVOID/GHOSTS./LIVE/ACTION/ARCADE/GAME. 
P/C/S/BREAKOUT. 30/OR/40
SMASH!/POW!/CRUNCH!/BREAK/THROUGH/WALL/AFTER/WALL/OF/OBJECTS.
A/2/Z/KEY/SEARCH. 30/OR/40
A/CHILD/CAN/USE/THE/COMPUTER/AND/LEARN/LETTERS/AND/NUMBERS.
MOBIUS/MOUNTAIN. 20/OR/40
A/MATH,/SHOOTS/AND/LATTER/TYPE/GAME.
RAINY/DAY/GAMES. 30
A/THREE/GAME/PACK/OF/SOLITAIRE,/MINE/BUSTER/AND/TRIPLE/YAHTZEE.
ARTHUR'S/QUEST. 30
YOUR/QUEST/IS/TO/FIND/AND/RECOVER/EXCALIBUR/THEN/FIGHT/THE/DARK/LORD.
STAR/TREK/THE/BATTLE/BEGINS. 30
YOU/COMMAND/FEDERATION/STAR/SHIPS/BATTLING/THREE/OLD/NEMESIS.
LONE/WOLF. 30
COMMAND/A/WW2/SUB/AND/REEK/HAVOC/ON/SHIPPING,/IN/THIS/SIMULATION.
MIND/PUZZLES. 30
SMOKE/YOUR/BRAIN/WITH/HANGMAN,/AND/OTHER/GREAT/MIND/DUSTING/GAMES!
HAZE/MAZE. 30
HEAR/YOUR/FOOTSTEPS/AS/YOU/NAVIGATE/THROUGH/A/MAZE.
COPS. 30
DRIVE/YOUR/POLICE/CAR/THROUGH/THE/CITY/CHACING/BAD/GUYS!
CARD/CLUB. 30
PLAY/HEARTS,/NORWEGIAN/WHIST,/WIDOW/WHIST,/OR/CRAZY/EIGHTS.
WORLD/SERIES/BASEBALL/SPECIAL/EDITION. 35
WE/HAVE/ADDED/REAL/SOUNDS/TO/THE/WORLD/SERIES/BASEBALL/GAME.
P/C/S/CAR/RACING/CIRCUIT. 30
YOU/CAN/RACE/YOUR/CAR/AGAINST/OPPONENTS/ON/FIVE/DIFFERENT/TRACKS.
PANZERS/IN/NORTH/AFRICA. 30
COMMAND/A/WORLD/WAR/2/TANK,/AND/FIGHT/YOUR/WAY/TO/VICTORY.
FOX/AND/HOUNDS. 30
YOU/CAN/RIDE/A/HORSE/AND/TRY/AND/CATCH/THE/FOX.
P/C/S/SHOOTING/RANGE. 30
AN/EXCITING/HAND/AND/EAR/SKILLS/GUN/SHOOTING/GAME.
TENPIN/BOWLING. 30
USE/EAR/AND/HAND/SKILLS/TO/BOWL.
MONOPOLY. 30
VERY/SPEECH/FRIENDLY/MONOPOLY/GAME.
ANY/NIGHT/FOOTBALL. 30
A/PLAY/BY/PLAY/DESCRIPTION,/FOOTBALL/GAME.
