 11 
General Help.
 1             6 
I can't find all the monsters!
 7             2 
How do I keep from being robbed?
 9             1 
How do I get past all the rats?
 10            1 
What's with the books?
 11            2 
Shortcuts and Magic Words.
 13            1 
Dungeon of Doom -- How do I get past the barrier?
 14            1 
Dungeon of Doom -- Where is the silver key?
 15            1 
Dungeon of Doom -- What is the answer to the riddle?
 16            1 
Dungeon of Doom -- How do I get past the Great Warrior?
 17            2 
Dungeon of Doom -- How do I beat Shantieka?
 19            2 
