"999",1,65,67,65,66,100
"BA",3,76,70,61,76,141
"BB",6,82,76,64,82,155
"BC",2,79,69,66,80,139
"BD",4,77,76,69,79,152
"BDB",2,73,75,68,78,123
"BDC",2,75,74,69,76,132
"BDD",1,70,78,79,74,112
"BDE",2,76,63,65,74,115
"BDF",2,76,62,65,75,114
"BDG",1,73,71,63,72,114
"BDH",2,74,68,74,75,117
"BDI",2,74,67,76,75,118
"BDJ",1,74,75,75,76,112
"BDK",1,57,77,55,74,114
"BDL",2,73,75,76,75,124
"BDM",1,72,75,74,73,114
"BDN",0,69,71,72,71,105
"BDO",3,77,60,60,79,140
"BDP",2,75,61,69,76,130
"BDQ",3,79,65,64,76,125
"BDR",2,76,74,75,76,126
"BDS",0,66,75,71,70,107
"BDT",1,67,72,67,69,112
"BDU",2,71,70,71,71,123
"BDV",2,75,68,67,74,125
"BDW",1,76,60,60,75,127
"BDX",1,73,67,65,73,117
"BDY",3,70,74,76,72,128
"BDZ",0,70,70,67,70,114
"BE",3,70,84,77,79,126
"BEA",3,76,74,73,76,128
"BEB",4,77,67,67,79,140
"BEC",2,79,60,56,73,130
"BED",1,80,77,70,81,115
"BEE",3,77,73,72,75,132
"BEF",2,79,75,75,82,126
"BEG",2,79,70,71,79,120
"BEH",0,69,67,67,68,110
"BF",2,75,78,64,75,126
"BFA",3,75,69,69,75,135
"BFB",2,74,73,73,75,123
"BFC",2,75,76,75,77,125
"BFD",2,73,75,77,77,117
"BFE",2,73,74,74,75,117
"BFF",1,73,74,75,75,111
"BFG",0,72,73,72,73,110
"BFH",0,73,72,72,73,110
"BFI",0,70,70,71,70,110
"BFJ",1,70,71,71,71,113
"BFK",1,71,73,74,74,116
"BG",3,74,77,64,79,141
"BGA",3,72,83,87,84,130
"BGB",0,73,72,69,75,114
"BGC",0,72,72,70,75,114
"BH",2,77,78,75,78,129
"BI",2,76,76,74,77,128
"BJ",4,81,73,77,80,138
"BK",4,80,80,79,82,148
"BL",6,78,54,57,78,160
"BM",2,77,78,76,77,128
"BMA",0,69,70,72,70,111
"BN",2,75,78,78,78,124
"BO",2,73,78,77,77,126
"BP",3,76,75,72,78,134
"BQ",2,72,74,77,76,124
"BR",1,72,73,78,75,115
"BRA",1,71,75,76,75,111
"BRB",1,75,75,71,76,112
"BS",3,75,77,78,78,120
"BT",4,77,76,76,80,139
"BTA",3,78,69,69,79,134
"BTB",2,77,70,69,79,123
"BU",3,68,82,66,82,131
"BUA",2,73,70,70,74,126
"BUB",0,69,68,69,71,110
"BV",2,67,73,76,73,113
"BVA",1,72,71,71,75,120
"BVB",1,71,69,70,73,125
"BVC",0,70,68,68,69,111
"BVD",1,73,72,70,75,115
"BVE",0,68,73,73,70,110
"BVF",1,70,72,75,74,114
"BW",2,78,72,76,80,128
"BX",2,79,71,76,79,129
"BXA",0,69,68,67,66,108
"BXB",2,75,69,67,75,124
"BXC",1,74,69,70,74,117
"BY",1,75,69,70,75,128
"BYA",6,80,71,71,83,161
"BYB",3,76,69,67,75,130
"BZ",2,74,70,71,75,126
"CA",3,74,80,74,78,135
"CB",2,73,75,79,77,121
"CC",3,76,63,69,80,130
"CD",4,76,73,75,77,136
"CE",4,77,78,65,81,139
"CF",4,78,68,68,79,137
"CFA",2,78,67,68,74,123
"CFB",2,78,67,73,74,122
"CG",2,77,74,69,77,126
"CH",2,76,76,75,77,119
"CI",1,78,76,78,78,121
"CJ",2,79,76,78,78,130
"CK",2,76,70,70,78,126
"CL",2,74,73,75,76,123
"CLA",1,72,74,76,74,120
"CM",2,77,64,68,78,128
"CN",2,77,64,68,78,125
"CO",4,78,72,76,78,139
"CP",3,77,70,78,80,133
"CQA",2,80,70,75,78,124
"CQB",3,80,70,75,78,127
"CR",2,73,68,66,73,119
"CS",2,74,67,61,73,118
"CT",3,72,74,70,75,122
"CTA",0,70,70,70,71,111
"CTB",1,73,72,70,74,112
"CU",2,75,62,66,76,130
"CUA",1,73,67,73,70,119
"CUB",1,75,68,70,73,126
"CV",0,69,68,68,71,111
"CX",3,76,76,73,77,128
"CY",0,75,70,74,74,114
"CYA",1,73,72,75,73,115
"CZ",1,75,63,70,75,121
"CZB",2,72,71,71,72,127
"CZC",2,71,74,75,74,126
"DA",4,80,80,80,81,143
"DAB",5,78,78,74,81,141
"DAC",5,80,70,71,81,151
"DB",6,81,65,69,84,163
"DBA",2,70,67,69,72,121
"DBB",4,79,68,70,79,145
"DBC",1,70,71,69,72,120
"DBD",3,76,67,68,75,126
"DBE",1,72,70,79,74,117
"DBF",2,67,72,69,70,123
"DBG",0,72,68,66,70,112
"DBH",0,71,70,70,70,110
"DBI",2,75,70,70,79,127
"DBJ",1,72,76,70,76,117
"DBK",1,73,63,67,73,118
"DBL",2,74,69,69,77,128
"DBM",3,73,73,72,74,131
"DBN",0,75,74,75,77,114
"DBO",1,74,68,67,75,117
"DBP",1,73,68,64,75,115
"DBQ",1,69,68,70,72,109
"DBR",0,66,53,52,61,103
"DBS",0,67,66,60,70,105
"DBT",3,61,84,60,78,131
"DBU",1,77,77,70,77,120
"DBV",3,77,67,64,77,132
"DC",5,77,82,76,84,151
"DCA",1,70,68,68,70,112
"DCC",2,76,67,75,74,115
"DCD",2,75,67,75,75,118
"DCE",2,78,81,79,85,128
"DCF",2,77,70,70,77,126
"DCG",1,74,73,70,74,111
"DD",3,83,70,65,82,138
"DDA",2,71,72,75,73,114
"DDB",1,76,69,70,76,117
"DDC",1,76,68,68,76,117
"DDD",2,72,71,74,75,113
"DDE",1,73,73,74,74,114
"DDF",0,71,69,72,73,111
"DDG",0,70,70,74,73,111
"DDH",2,70,75,81,78,117
"DDI",0,70,73,76,75,112
"DDJ",0,69,70,75,72,112
"DE",3,75,78,51,76,132
"DEA",2,74,70,70,74,133
"DF",3,82,51,51,76,138
"DG",2,77,77,53,78,123
"DH",3,78,73,70,78,128
"DI",5,77,75,68,77,152
"DJ",2,74,77,73,77,122
"DJA",1,73,73,71,74,116
"DJB",1,74,73,74,74,115
"DJC",0,69,76,74,75,114
"DK",3,76,74,79,77,128
"DL",1,74,72,69,75,116
"DM",2,71,76,73,75,128
"DN",3,80,70,67,80,140
"DO",2,74,76,77,74,125
"DP",2,79,70,70,79,135
"DQ",2,74,74,73,74,115
"DQA",1,71,74,74,74,114
"DQB",1,72,74,74,74,113
"DQC",1,70,75,74,73,112
"DR",3,78,69,65,77,137
"DS",3,75,74,74,75,131
"DT",1,74,69,70,73,125
"DTA",0,70,70,70,72,112
"DTB",0,71,70,69,71,110
"DTC",0,72,70,70,72,110
"DTD",3,77,67,66,77,138
"DU",3,74,75,70,75,131
"DV",2,75,74,72,75,124
"DW",3,75,76,72,76,130
"DWA",1,69,74,76,74,111
"DWB",2,75,68,68,75,132
"DWC",2,74,75,76,76,121
"DX",2,74,70,76,74,120
"DY",1,74,71,70,76,112
"DZ",1,75,70,63,74,110
"EA",2,75,75,72,77,123
"EB",3,76,75,70,77,127
"EC",1,74,73,73,74,110
"ED",2,73,78,74,78,122
"EE",2,76,75,70,77,129
"EF",4,76,78,76,79,134
"EG",3,75,76,78,77,131
"EH",2,74,81,76,81,130
"EI",1,73,75,74,77,112
"EJ",4,77,74,73,79,135
"EK",2,77,78,67,78,125
"EL",3,77,69,67,78,131
"EM",2,76,76,69,78,122
"EN",0,67,60,61,70,108
"EO",1,72,74,78,76,115
"EP",1,74,72,69,73,116
"EQ",2,75,76,70,78,123
"ER",4,77,79,65,82,141
"ES",1,69,77,70,77,116
"ET",3,77,70,70,77,128
"EU",5,79,81,81,82,133
"EV",2,74,74,68,78,126
"EW",3,79,70,65,79,138
"EX",2,76,71,68,77,119
"EXA",0,70,67,67,70,109
"EY",3,77,78,75,79,125
"EZ",4,71,79,80,81,126
"FA",6,82,72,66,82,170
"FAB",3,78,68,68,78,127
"FAC",4,80,70,70,83,139
"FAD",3,77,70,75,76,129
"FAE",2,76,72,68,76,123
"FAF",3,74,74,71,74,136
"FAH",2,75,76,73,76,129
"FAV",3,77,60,60,76,133
"FB",3,77,76,68,78,129
"FBB",2,74,75,70,74,124
"FBC",2,74,75,69,76,124
"FBD",2,73,73,70,74,123
"FC",4,78,68,68,79,132
"FCA",1,72,74,74,73,113
"FD",2,73,74,68,74,124
"FDA",2,73,70,68,72,118
"FE",3,79,76,79,81,130
"FF",3,80,75,78,81,131
"FG",2,79,56,50,73,127
"FGA",2,73,74,75,76,121
"FGB",2,73,74,75,75,120
"FGC",2,75,70,68,75,121
"FH",3,73,75,76,77,126
"FI",3,73,74,76,76,124
"FJ",3,70,76,66,76,131
"FJA",2,72,75,76,74,120
"FJB",2,74,72,70,76,130
"FK",1,73,71,71,74,115
"FL",2,73,73,70,75,124
"FM",3,75,75,69,76,129
"FN",2,75,72,73,75,123
"FO",2,73,75,74,75,120
"FP",3,74,77,74,77,130
"FQ",2,74,69,66,76,140
"FR",1,75,68,67,75,127
"FRA",2,75,69,67,75,141
"FS",2,78,72,72,76,128
"FT",1,70,75,76,73,117
"FTA",1,70,71,70,72,118
"FTB",0,70,69,70,70,114
"FU",3,74,73,78,77,129
"FV",1,72,73,73,73,118
"FVA",2,74,70,70,75,131
"FX",2,75,75,76,78,127
"FY",2,71,71,72,72,114
"FZ",2,71,72,72,72,122
"FZA",1,71,72,71,72,120
"FZB",1,73,69,69,71,117
"ZZZ",1,70,70,70,70,110
