"999","999","999","999","999","999","999"
"BA","Eric Bischoff","P","Scott Steiner","Scott Hall","Sting","Kevin Nash"
"BB","NONE","G","Randy Savage","Konnan","Hulk Hogan","Brian Adams"
"BC","Dusty Rhodes","N","Scott Steiner","Brian Adams","Konnan","Curt Hennig"
"BD","NONE","P","Sting","Diamond Dallas Page","Scott Steiner","Scott Norton"
"BDB","Gary Hart","N","Great Kabuki","One Man Gang","Tony Atlas","Steve Armstrong"
"BDC","Vincent","P","Buff Bagwell","Scott Steiner","Konnan","Disco Inferno"
"BDD","Debra McMicheal","C","Eddy Guerrero","Chris Jericho","Rey Misterio Jr.","Mike Enos"
"BDE","NONE","N","Jerry Saggs","Duke Droese","Iron Sheik","Marty Jannetty"
"BDF","NONE","N","Brian Knobbs","Doink The Clown","Nikolai Volkoff","Ludwig Borga"
"BDG","NONE","N","Rey Misterio Jr.","Chavo Guerrero Jr.","Reese","La Parka"
"BDH","NONE","N","Rocco Rock","Steve McMicheal","Rage","Villiano IV"
"BDI","NONE","N","Johnny Grunge","Juventud Guerrera","Chaos","Billy Kidman"
"BDJ","NONE","N","Mike Enos","Dean Malenko","David Taylor","Booker T"
"BDK","NONE","N","Lord Stephen Regal","Hunter Hearst Helmsley","2 Cold Scorpio","Disco Inferno"
"BDL","Vincent","N","Scott Norton","Scott Steiner","Chris Benoit","Curt Hennig"
"BDM","NONE","N","Billy Kidman","Lodi","Disco Inferno","Juventud Guerrera"
"BDN","NONE","C","Norman Smiley","Glacier","Brad Armstrong","Jerry Flynn"
"BDO","Jimmy Hart","P","Hugh Morris","Loch Ness","Scott Norton","Wrath"
"BDP","NONE","N","Mike Enos","Ray Traylor","Hugh Morris","Chaos"
"BDQ","NONE","N","Ice Train","Tony Atlas","Abdullah the Butcher","Renegade"
"BDR","NONE","N","Meng","Alex Wright","Steve McMicheal","Rey Misterio Jr."
"BDS","NONE","N","Jerry Flynn","Glacier","Norman Smiley","Jim Powers"
"BDT","NONE","N","Bobby Fulton","Todd Chaz","Al Madril","Devon Storm"
"BDU","NONE","N","NWO Sting","Brian Adams","Steve McMicheal","Konnan"
"BDV","NONE","N","Bunkhouse Buck","Buddy Rose","Erik Watts","Ricky Morton"
"BDW","NONE","N","Dick Slater","Buddy Rose","Chad Fortune","Robert Gibson"
"BDX","NONE","N","The Barbarian","Jerry Flynn","Ernest Miller","Chavo Guerrero Jr."
"BDY","NONE","N","Hunter Hearst Helmsley","Billy Gunn","Chainz","Steve Blackman"
"BDZ","NONE","N","Norman Smiley","Ricky Santana","Mike Enos","Jerry Flynn"
"BE","NONE","C","Rey Misterio Jr.,","Steve McMicheal","Chris Jericho","Alex Wright"
"BEA","NONE","P","Jim Duggan","Jimmy Valiant","Buddy Rose","Paul Roma"
"BEB","NONE","N","Randy Savage","Kevin Greene","Hulk Hogan","Bret Hart"
"BEC","NONE","P","Chris Benoit","Dean Malenko","British Bulldog","Jim Neidhart"
"BED","NONE","N","Ricky Santana","Jerry Flynn","Hector Garza","Super Calo"
"BEE","NONE","N","Wrath","Diamond Dallas Page","Raven","Perry Saturn"
"BEF","James Vandenberg","P","Kanyon","The Barbarian","Meng","Horace"
"BEG","NONE","N","Hector Garza","Fit Finlay","Glacier","Jerry Flynn"
"BEH","NONE","N","Glacier","Mike Enos","Villiano IV","Rage"
"BF","NONE","P","Brian Adams","Dennis Rodman","Rick Steiner","Lex Luger"
"BFA","NONE","N","Scott Steiner","Scott Norton","Kevin Greene","Lex Luger"
"BFB","NONE","N","Great Muta","Scott Norton","La Parka","Konnan"
"BFC","NONE","N","Masa Chono","Scott Steiner","Ultimo Dragon","Stevie Ray"
"BFD","NONE","C","Ultimo Dragon","Juventud Guerrera","Glacier","Brad Armstrong"
"BFE","NONE","C","Psicosis","Silver King","Super Calo","Lizmark Jr."
"BFF","NONE","C","Lizmark Jr.","Hector Garza","Villiano V","La Parka"
"BFG","NONE","C","Villiano V","La Parka","Super Calo","Psicosis"
"BFH","NONE","C","Villiano IV","Psicosis","Lizmark Jr.","Hector Garza"
"BFI","NONE","C","Chavo Guerrero Jr.","Jim Powers","Jerry Flynn","Glacier"
"BFJ","NONE","C","Hector Guerrero","Eddy Guerrero","Alex Wright","Eddy Guerrero"
"BFK","NONE","C","Super Calo","Rey Misterio Jr.","Villiano IV","Ernest Miller"
"BG","NONE","N","Chris Benoit","Steve McMicheal","Sting","Scott Hall"
"BGA","NONE","C","Dean Malenko","Hector Garza","Chris Jericho","Eddy Guerrero"
"BGB","NONE","N","Chaos","Jim Powers","Johnny Grunge","Villiano V"
"BGC","NONE","N","Rage","Bobby Walker","Rocco Rock","Lizmark Jr."
"BH","NONE","P","Booker T","Steve McMicheal","Chris Jericho","Konnan"
"BI","NONE","N","Sean Micheals","Bret Hart","Kevin Nash","Mankind"
"BJ","Elizabeth","N","Kevin Nash","Sting","Brian Adams","Diamond Dallas Page"
"BK","NONE","N","Lex Luger","Kevin Nash","The Giant","Ric Flair"
"BL","NONE","G","Brian Adams","Scott Hall","Sting","Kevin Nash"
"BM","NONE","N","Curt Hennig","Kevin Nash","Buff Bagwell","Scott Steiner"
"BMA","NONE","N","Jim Powers","Marc Starr","Brad Armstrong","Lodi"
"BN","Tennessee Lee","N","Henry Godwin","Phineas Godwin","Steve Blackman","Val Venis"
"BO","NONE","N","Chavo Guerrero Jr.","Chris Jericho","Chavo Guerrero Jr.","Rey Misterio Jr."
"BP","Ted Dibiase","N","Diamond Dallas Page","Booker T","Scott Steiner","Scott Norton"
"BQ","NONE","C","Booker T","Hector Garza","Chris Jericho","Chavo Guerrero Jr."
"BR","NONE","C","La Parka","Silver King","Super Calo","Lizmark Jr."
"BRA","NONE","N","Psicosis","Yugi Nagata","Hector Garza","Ultimo Dragon"
"BRB","Sonny Onno","N","Fit Finlay","Silver King","Ultimo Dragon","Stevie Ray"
"BS","NONE","C","Jim Neidhart","British Bulldog","Dean Malenko","Rey Misterio Jr."
"BT","NONE","N","Kevin Nash","Kanyon","Raven","Brian Adams"
"BTA","NONE","N","Ric Flair","Roddy Piper","Steve McMicheal","Dennis Rodman"
"BTB","NONE","N","Rick Steiner","Diamond Dallas Page","Steve McMicheal","Chris Benoit"
"BU","Vince McMahon","N","Dude Love","Jerry Lawler","Steve Austin","Farooq"
"BUA","NONE","N","Rick Steiner","Ernest Miller","Chris Benoit","Steve McMicheal"
"BUB","NONE","N","Norman Smiley","Super Calo","Brad Armstrong","Jerry Flynn"
"BV","NONE","C","Hammer","Lizmark Jr.","Billy Kidman","Reese"
"BVA","NONE","N","Chad Fortune","Erik Watts","Renegade","John Nord"
"BVB","NONE","N","Kevin Sullivan","Abdullah the Butcher","Kevin Von Erich","Tony Atlas"
"BVC","NONE","N","NWO Sting","Scott Steiner","Chaos","Rocco Rock"
"BVD","Eric Bischoff","N","Vincent","Scott Norton","Konnan","Curt Hennig"
"BVE","NONE","C","Norman Smiley","Ernest Miller","Marc Starr","Ricky Santana"
"BVF","NONE","C","Reese","Scotty Riggs","Ultimo Dragon","Juventud Guerrera"
"BW","NONE","N","Booker T","Hammer","Johnny Grunge","Chaos"
"BX","NONE","N","Stevie Ray","Juventud Guerrera","Chris Benoit","Steve McMicheal"
"BXA","NONE","C","Scotty Riggs","Sick Boy","Marc Starr","Norman Smiley"
"BXB","NONE","N","Juventud Guerrera","Diamond Dallas Page","Sick Boy","Perry Saturn"
"BXC","NONE","N","Lodi","Horace","Hammer","Juventud Guerrera"
"BY","NONE","N","Rick Steiner","Dean Malenko","NWO Sting","Buff Bagwell"
"BYA","NONE","N","Diamond Dallas Page","Booker T","Meng","The Giant"
"BYB","NONE","C","Dick Slater","Bunkhouse Buck","Ahmed Johnson","Joe Gomez"
"BZ","Sir Oliver Humperdinck","N","Renegade","Abdullah the Butcher","Jim Duggan","Bad News Brown"
"CA","Francine","N","Bam Bam Bigelow","Chris Candido","Taz","Rob Van Dam"
"CB","NONE","N","Terry Funk","Mosh","Brian Christopher","Val Venis"
"CC","NONE","N","Perry Saturn","Reese","Kanyon","Diamond Dallas Page"
"CD","Beulah","N","Sandman","New Jack","Justin Credible","Pitbull #2"
"CE","Ted DiBiase","N","Sandman","Lance Storm","Shane Douglas","Bam Bam Bigelow"
"CF","NONE","N","Taz","Tommy Dreamer","Sabu","Steve Williams"
"CFA","NONE","N","Sandman","Balls Mahoney","Lance Storm","D-Von Dudley"
"CFB","NONE","N","Axl Rotten","Spike Dudley","Chris Candido","Stevie Richards"
"CG","NONE","N","Pitbull #1","Pitbull #2","Louie Spicolli","Taz"
"CH","Sunny","N","Bam Bam Bigelow","Shane Douglas","New Jack","Jerry Lynn"
"CI","Lance Wright","N","Pitbull #2","Steve Williams","Tommy Dreamer","Rob Van Dam"
"CJ","Lance Wright","N","Pitbull #1","Steve Williams","Louie Spiccoli","Lance Storm"
"CK","NONE","N","Crush","8 Ball","Savio Vega","D-Lo Brown"
"CL","NONE","N","Hollywood Nova","Blue Meanie","Axl Rotten","Justin Credible"
"CLA","NONE","N","New Jack","Jerry Lynn","Lance Storm","D-Von Dudley"
"CM","NONE","N","Spike Dudley","Mustafa Saed","Dick Dudley","Bubba Ray Dudley"
"CN","NONE","N","New Jack","John Kronos","Dick Dudley","Tracey Smothers"
"CO","Bill Alfonso","N","Sabu","Louie Spiccoli","Taz","Tommy Dreamer"
"CP","NONE","N","Rob Van Dam","Chris Candido","Sandman","Tommy Dreamer"
"CQA","NONE","N","Raven","Horace","Kanyon","Hammer"
"CQB","NONE","N","New Jack","Spike Dudley","Axl Rotten","Dick Dudley"
"CR","NONE","N","Skull","Chainz","Miguel Perez","Road Dog"
"CS","NONE","N","8 Ball","Chainz","Henry Godwin","Thrasher"
"CT","NONE","N","Brian Christopher","Jerry Lawler","John Kronos","Steve Williams"
"CTA","Tommy Rich","N","Tracey Smothers","Axl Rotten","Jerry Lynn","Doug Furnas"
"CTB","NONE","N","Little Guido","Justin Credible","Lance Storm","Phillip Lafonde"
"CU","Joel Gertner","P","D-Von Dudley","Dick Dudley","Mustafa Saed","John Kronos"
"CUA","NONE","C","New Jack","Tommy Rogers","D-Von Dudley","Luke"
"CUB","Sign Guy Dudley","P","D-Von Dudley","Butch","John Kronus","New Jack"
"CV","NONE","N","Hollywood Nova","Blue Meanie","Balls Mahoney","Tracey Smothers"
"CX","NONE","N","Tommy Dreamer","Rob Van Dam","Chris Candido","Dick Dudley"
"CY","NONE","N","Hollywood Nova","Stevie Richards","Lance Storm","Jerry Lynn"
"CYA","7-11","N","Blue Meanie","Thomas Rodman","Axl Rotten","Little Guido"
"CZ","Sign Guy Dudley","N","Dick Dudley","Luke","New Jack","Balls Mahoney"
"CZB","NONE","N","Jerry Lynn","Mikey Whipwreck","Chris Candido","Justin Credible"
"CZC","NONE","N","Tommy Rogers","Taz","Justin Credible","Sabu"
"DA","NONE","N","Hunter Hearst Helmsley","X-Pac","Rocky Maivia","Ken Shamrock"
"DAB","NONE","N","Steve Blackman","Justin Bradshaw","Owen Hart","Jeff Jarrett"
"DAC","Paul Bearer","G","Mankind","Rocky Maivia","Steve Austin","The Undertaker"
"DB","NONE","G","Ken Shamrock","Steve Austin","Kain","Mankind"
"DBA","NONE","N","Nikolai Volkoff","Iron Sheik","The Patriot","Tito Santana"
"DBB","NONE","P","Sting","Lex Luger","Hulk Hogan","The Giant"
"DBC","NONE","N","Honky Tonk Man","Waylon Mercy","Jerry Saggs","Tatankaa"
"DBD","NONE","N","Taka Minichoku","Hawk","Val Venis","Barry Windham"
"DBE","NONE","N","Steve Armstrong","Steve Simpson","Bunkhouse Buck","Buddy Roberts"
"DBF","Chastity","N","JC Ice","Wolfie D","Mikey Whipwreck","Jerry Lynn"
"DBG","Jim Ross","N","Razor Ramon","Mabel","Doink the Clown","Duke Droese"
"DBH","Jim Ross","N","Diesel","Mabel","S.D. Jones","Hakushi"
"DBI","NONE","N","Bam Bam Bigelow","Hawk","Dick Slater","Jerry Lawler"
"DBJ","Ted DiBiase","N","Tatankaa","Mabel","Duke Droese","Rocky Johnson"
"DBK","NONE","N","S.D. Jones","Hakushi","Brooklyn Brawler","Tiger Chung Lee"
"DBL","Luna Vachon","P","Kerrigan","Jackyl","Vader","Farooq"
"DBM","NONE","N","Owen Hart","Mark Henry","Farooq","Hunter Hearst Helmsley"
"DBN","NONE","N","Duke Droese","Doink the Clown","Diesel","Brooklyn Brawler"
"DBO","Sign Guy Dudley","N","Luke","Dick Dudley","Axl Rotten","Blue Meanie"
"DBP","Joel Gertner","N","Butch","D-Von Dudley","Balls Mahoney","Phillip Lafonde"
"DBQ","NONE","N","S.D. Jones","Hakushi","Razor Ramon","Salvatore Sincere"
"DBR","NONE","N","Salvatore Sincere","Tiger Chung Lee","S.D. Jones","Doink the Clown"
"DBS","NONE","N","Jerry Flynn","Glacier","Norman Smiley","Marc Starr"
"DBT","NONE","N","Tony Atlas","Greg Valentine","Iron Sheik","The Sultan"
"DBU","Jim Cornette","N","Bob Holly","Bart Gunn","Mosh","Edge"
"DBV","NONE","P","Hulk Hogan","Scott Hall","Curt Hennig","Lex Luger"
"DC","NONE","N","Jim Neidhart","British Bulldog","Roddy Piper","Sting"
"DCA","NONE","N","Bart Gunn","Barry Windham","Justin Bradshaw","Thrasher"
"DCC","NONE","N","Thrasher","Terry Funk","Bart Gunn","Kama Mustapha"
"DCD","NONE","N","Mosh","Edge","Bob Holly","Jesus"
"DCE","Rick Rude","N","Konnan","Buff Bagwell","Jim Neidhart","Steve McMicheal"
"DCF","Chyna","N","Road Dog","X-Pac","Hawk","8 Ball"
"DCG","NONE","N","Barry Windham","Bob Holly","Skull","Miguel Perez"
"DD","NONE","P","Ice Train","Jim Duggan","Bad News Brown","Craig Pittman"
"DDA","Kimona","C","Ace Darling","Paul Roma","Erik Watts","Steve Simpson"
"DDB","NONE","N","Kama Mustapha","Mark Henry","Chainz","Animal"
"DDC","NONE","N","Owen Hart","D-Lo Brown","Flash Funk","Terry Funk"
"DDD","NONE","C","Devon Storm","Bad News Brown","Robert Gibson","Bunkhouse Buck"
"DDE","NONE","C","Jerry Lawler","Scott Taylor","Flash Funk","Thrasher"
"DDF","NONE","C","Wolfie D","Little Guido","Axl Rotten","Jerry Lynn"
"DDG","Jason","C","JC Ice","Justin Credible","Phillip Lafonde","Blue Meanie"
"DDH","NONE","C","Pantera","Justin Bradshaw","Papa Chuli","Scott Taylor"
"DDI","NONE","C","Brian Christopher","Scott Taylor","Flash Funk","Billy Gunn"
"DDJ","NONE","C","Papa Chuli","Mosh","Phineas Godwin","Skull"
"DE","NONE","P","Vader","Goldust","Mark Henry","D Lo Brown"
"DEA","NONE","P","D Lo Brown","Kama Mustapha","Justin Bradshaw","Farooq"
"DF","Vince McMahon","N","Stephen Regal","Rocky Maivia","Steve Austin","The Undertaker"
"DG","Marlena","N","Farooq","Vader","Barry Windham","Marc Mero"
"DH","NONE","P","Goldust","Dan Severn","John Tenta","Marc Mero"
"DI","NONE","N","The Undertaker","Farooq","Stephen Regal","Dude Love"
"DJ","NONE","N","Jim Neidhart","Chris Jericho","Chris Benoit","Konnan"
"DJA","NONE","N","Jean Pierre Oulette","Barry Windham","Mosh","Jose"
"DJB","NONE","N","Jacques Rougeau","Edge","Skull","Thrasher"
"DJC","NONE","N","Rick Martel","Duke Droese","Brian Knobbs","Nikolai Volkoff"
"DK","NONE","N","Sid Vicious","Jeff Jarrett","Tully Blanchard","Arn Andersen"
"DL","NONE","N","Scott Taylor","Brian Christopher","Taka Minichoku","Road Dog"
"DM","NONE","N","Rocky Maivia","Mark Henry","Ken Shamrock","Dan Severn"
"DN","NONE","P","Jimmy Snuka","Paul Orndorff","Mabel","Giant Gonzales"
"DO","Jacquelyn","N","Owen Hart","Phineas Godwin","Goldust","Al Snow"
"DP","Sir Mo","G","Razor Ramon","Diesel","Sid Vicious","Paul Orndorff"
"DQ","NONE","N","Miguel Perez","Jesus","8 Ball","Chainz"
"DQA","NONE","N","Jose","Jesus","Road Dog","Henry Godwin"
"DQB","NONE","N","Savio Vega","Miguel Perez","D Lo Brown","Phineas Godwin"
"DQC","NONE","N","Miguel Perez","Jose","Chainz","Kama Mustapha"
"DR","NONE","G","Bam Bam Bigelow","Jake Roberts","Vader","The Sultan"
"DS","NONE","N","Shane Douglas","Chris Candido","Taz","Sabu"
"DT","Clarence Mason","N","Mike Enos","Tracey Smothers","Brian Lee","Chris Candido"
"DTA","Luna Vachon","N","John Tenta","Kerrigan","Hawk","Billy Gunn"
"DTB","NONE","N","Sniper","Brian Adidas","Devon Storm","Buddy Roberts"
"DTC","NONE","N","Recon","Craig Pittman","Ace Darling","Adrian Street"
"DTD","Luna Vachon","G","Jackyl","John Tenta","Vader","Dan Severn"
"DU","Chyna","N","Road Dog","Sean Micheals","Ken Shamrock","Owen Hart"
"DV","NONE","N","Ernest Miller","Kanyon","Konnan","Glacier"
"DW","NONE","N","Ken Shamrock","Farooq","Jerry Lawler","Marc Mero"
"DWA","NONE","C","Brian Christopher","Jerry Lawler","Pantera","8 Ball"
"DWB","Slick","G","Great Kabuki","Craig Pittman","Jim Duggan","Ice Train"
"DWC","NONE","N","Tony Atlas","Marty Jannetty","Jerry Saggs","Tiger Chung Lee"
"DX","NONE","N","Rocky Johnson","Ivan Putski","Brian Knobbs","Diesel"
"DY","Tennessee Lee","N","Phineas Godwin","Jeff Jarrett","Mosh","Skull"
"DZ","Tennessee Lee","N","Henry Godwin","Jeff Jarrett","Jose","Hawk"
"EA","NONE","N","Terry Gordy","Buddy Roberts","Kevin Von Erich","Jimmy Valiant"
"EB","NONE","N","Michael Hayes","Buddy Roberts","Kerry Von Erich","Ahmed Johnson"
"EC","NONE","N","Michael Hayes","Terry Gordy","Adrian Street","Devon Storm"
"ED","NONE","N","Tito Santana","Junkyard Dog","Magnificent Muraco","Rocky Johnson"
"EE","Mister Fuji","N","Tiger Chung Lee","Rick Rude","Paul Orndorff","Sid Vicious"
"EF","NONE","N","Mike Von Erich","Kevin Von Erich","Michael Hayes","Kevin Sullivan"
"EG","NONE","N","Kerry Von Erich","Steve Simpson","Renegade","Great Kabuki"
"EH","NONE","N","Junkyard Dog","Jimmy Snuka","Honky Tonk Man","Greg Valentine"
"EI","NONE","N","Al Madril","Chris Adams","Kevin Von Erich","Ace Darling"
"EJ","NONE","N","Wahoo McDaniel","Goldust","Rick Rude","Arn Andersen"
"EK","Sir Oliver Humperdinck","N","Kevin Sullivan","Hugh Morris","Barry Windham","Billy Jack Haynes"
"EL","NONE","N","Tito Santana","Paul Orndorff","Rick Martel","Magnificent Muraco"
"EM","Jimmy Hart","N","Greg Valentine","Rick Rude","The Patriot","Junkyard Dog"
"EN","NONE","N","Andrew Golota","John Nord","Jim Duggan","Kevin Von Erich"
"EO","NONE","C","Chad Fortune","Mike Von Erich","Al Madril","Bunkhouse Buck"
"EP","NONE","N","Buddy Rose","Abdullah the Butcher","Dusty Rhodes","Tony Atlas"
"EQ","NONE","N","Jimmy Valiant","Ricky Steamboat","Arn Andersen","Ivan Koloff"
"ER","NONE","N","Lex Luger","Kerry Von Erich","Sting","Arn Andersen"
"ES","Miss Linda","C","Jimmy Valiant","Steve Simpson","Sniper","Iceman Parsons"
"ET","NONE","P","Greg Valentine","Marcus Bagwell","Junkyard Dog","Lex Luger"
"EU","NONE","N","Dusty Rhodes","Tito Santana","Randy Savage","Honky Tonk Man"
"EV","NONE","N","Rick Rude","Magnificent Muraco","Ivan Putski","Tony Atlas"
"EW","Bobby Heenan","G","Giant Gonzales","Magnificent Muraco","Yokozuna","Sid Vicious"
"EX","Gary Hart","N","Abdullah the Butcher","Craig Pittman","Jim Duggan","Kevin Von Erich"
"EXA","Mister Fuji","N","Magnificent Muraco","Brooklyn Brawler","S.D. Jones","Doink the Clown"
"EY","NONE","N","Magnificent Muraco","Jesse Ventura","Jimmy Snuka","Marty Jannetty"
"EZ","NONE","N","Ricky Steamboat","Tito Santana","Konnan","Stan Hansen"
"FA","NONE","G","Tito Santana","Junkyard Dog","Big John Studd","Greg Valentine"
"FAB","NONE","N","Buddy Rose","Dick Slater","Ice Train","Kerry Von Erich"
"FAC","NONE","N","Steve Austin","Ken Shamrock","Hunter Hearst Helmsley","Sean Micheals"
"FAD","NONE","N","Junkyard Dog","Paul Orndorff","Magnificent Muraco","Ludwig Borga"
"FAE","NONE","N","Junkyard Dog","Tito Santana","Jesse Ventura","Waylon Mercy"
"FAF","NONE","N","Kevin Von Erich","Jim Duggan","Paul Roma","Renegade"
"FAH","NONE","N","Flash Funk","Animal","Hunter Hearst Helmsley","Mark Henry"
"FAV","NONE","N","Adrian Street","Sam Houston","Micheal Hayes","Paul Roma"
"FB","NONE","N","Bunkhouse Buck","Dick Slater","Bad News Brown","Terry Gordy"
"FBB","Ted DiBiase","N","Micheal Wallstreet","Giant Gonzales","Rick Martel","Tito Santana"
"FBC","NONE","N","Jim Garvin","Steve Williams","Micheal Hayes","Arn Andersen"
"FBD","Precious","N","Iceman Parsons","Brickhouse Brown","Chris Adams","Ahmed Johnson"
"FC","NONE","N","The Patriot","Paul Orndorff","Ludwig Borga","Tatankaa"
"FCA","NONE","N","Brickhouse Brown","Jim Garvin","Todd Chaz","Mike Von Erich"
"FD","NONE","N","Nikolai Volkoff","The Sultan","Bob Backlund","The Patriot"
"FDA","NONE","N","Iron Sheik","The Sultan","Jimmy Snuka","Micheal Wallstreet"
"FE","Sunny","N","Animal","Terry Funk","8 Ball","X Pac"
"FF","Sunny","N","Hawk","Farooq","Chainz","Road Dog"
"FG","NONE","N","Craig Pittman","Kabuki","Tugboat Taylor","Stan Hansen"
"FGA","NONE","N","Phillip LaFon","Jerry Lynn","Tracey Smothers","Lance Storm"
"FGB","NONE","N","Doug Furnas","Tommy Rogers","Mustafa Saed","Blue Meanie"
"FGC","NONE","N","Ludwig Borga","Mabel","Sid Vicious","The Patriot"
"FH","NONE","N","Robert Gibson","Todd Chaz","Paul Roma","Iceman Parsons"
"FI","NONE","N","Ricky Morton","Tugboat Taylor","Brickhouse Brown","Devon Storm"
"FJ","NONE","N","Honky Tonk Man","Adrian Adonis","Paul Orndorff","Tito Santana"
"FJA","NONE","N","Steve Simpson","Mike Von Erich","Jim Garvin","Craig Pittman"
"FJB","Harvey Whippelman","N","Tatankaa","Ludwig Borga","Sgt. Slaughter","King Kong Bundy"
"FK","NONE","N","Iceman Parsons","Brickhouse Brown","Sam Houston","Ricky Morton"
"FL","NONE","N","Billy Gunn","X Pac","D Lo Brown","Animal"
"FM","NONE","N","Roddy Piper","Junkyard Dog","Magnificent Muraco","Yokozuna"
"FN","Jimmy Hart","N","Magnificent Muraco","Jesse Ventura","Junkyard Dog","Jimmy Snuka"
"FO","NONE","N","Buddy Rose","Al Madril","Kerry Von Erich","Jim Duggan"
"FP","J.J. Dillon","N","Arn Andersen","Ric Flair","Dusty Rhodes","Ricky Steamboat"
"FQ","Bobby Heenan","N","Greg Valentine","Rick Martel","Big John Studd","Giant Gonzales"
"FR","NONE","P","Iron Sheik","Waylon Mercy","Tatankaa","Paul Orndorff"
"FRA","Jimmy Hart","G","Hugh Morris","Meng","The Giant","Kevin Nash"
"FS","NONE","N","Tugboat Taylor","Jimmy Valiant","Sam Houston","Stan Hansen"
"FT","NONE","N","Iceman Parsons","Jim Garvin","Erik Watts","Sam Houston"
"FTA","Baby Doll","N","Ice Train","Koko B Ware","Devon Storm","Dick Slater"
"FTB","NONE","N","Sid Vicious","Duke Droese","Razor Ramon","Brooklyn Brawler"
"FU","NONE","N","Paul Orndorff","Junkyard Dog","Salvatore Sincere","Mabel"
"FV","NONE","C","Tugboat Taylor","Steve Simpson","Devon Storm","Brickhouse Brown"
"FVA","NONE","N","Todd Chaz","Erik Watts","Ace Darling","Bunkhouse Buck"
"FX","NONE","N","Sgt. Slaughter","Paul Orndorff","Iron Sheik","The Sultan"
"FY","NONE","N","Steve Simpson","Kevin Von Erich","Buddy Roberts","Brian Adidas"
"FZ","NONE","N","Chad Fortune","Tugboat Taylor","Ace Darling","Micheal Hayes"
"FZA","NONE","N","Erik Watts","Sam Houston","Steve Armstrong","Brickhouse Brown"
"FZB","NONE","N","Brian Adias","Chris Adams","Bobby Fulton","Joe Gomez"
"ZZZ","ZZZ","ZZZ","ZZZ","ZZZ","ZZZ","ZZZ"
