291
238
101
94
"The Jim Jacobson Adventures Deluxe"
 6             2             5 
The Cave of the Mind
 31 
 51 
 14 
 14 
 1 
 1 
 1 
 1 
 6 
The Zyphur Riverventure
 83 
 54 
 17 
 22 
 33 
 53 
 16 
 16 
 6 
The Devil's Tomb
 47 
 59 
 10 
 18 
 117 
 108 
 34 
 39 
 6 
The Abductor's Quarters
 73 
 37 
 10 
 21 
 165 
 168 
 45 
 58 
 6 
The Quest for Trezore
 54 
 34 
 47 
 16 
 238 
 205 
 55 
 79 
 6 
