 79 
EAMON DELUXE 5.0 GENERAL HELP.
 1             8 
Redemption -- New commands
 9             1 
Redemption -- What to do in the Wilderness.
 10            1 
Redemption -- What to do in Agroville.
 11            1 
Redemption -- What to do in Tradetown.
 12            1 
Redemption -- What to do in Kingscourt.
 13            1 
Redemption -- What to do in Ironcastle.
 14            1 
Redemption -- What to do in Shrine City.
 15            1 
Redemption -- Forest solution.
 16            1 
Redemption -- Lake solution.
 17            1 
Redemption -- Hills solution.
 18            1 
Redemption -- Swamp solution.
 19            1 
Banana Republic -- New commands.
 22            1 
Banana Republic -- Special words.
 23            1 
Banana Republic -- How do I get home?
 24            1 
Banana Republic -- How do I use the bananas?
 25            1 
Banana Republic -- Are there any companions in this adventure?
 26            1 
Banana Republic -- Where are the maps at?
 27            1 
Banana Republic -- What do I do with the rod/potion/scroll?
 28            1 
Banana Republic -- What's in the NW Kingdom?
 29            1 
Banana Republic -- What's in the NE Kingdom?
 30            1 
Banana Republic -- What's in the SW Kingdom?
 31            1 
Banana Republic -- What's in the SE Kingdom?
 32            1 
Banana Republic -- Tundra solution.
 33            1 
Banana Republic -- Jungle solution.
 34            2 
Banana Republic -- Desert solution.
 36            2 
Banana Republic -- Ocean solution.
 38            1 
Banana Republic -- Where can I buy magic bananas?
 39            1 
Banana Republic -- Where can I buy equipment?
 40            1 
The Curse of Talon -- Notes.
 43            1 
The Curse of Talon -- New command.
 44            1 
The Curse of Talon -- IMPORTANT! - Read me.
 45            1 
The Curse of Talon -- How do I get past the web?
 46            1 
The Curse of Talon -- How do I cure poison?
 47            1 
The Curse of Talon -- How do I open the vault/gate?
 48            1 
The Curse of Talon -- What do I do on the balcony?
 49            1 
The Curse of Talon -- Is there a secret passage in the castle?
 50            1 
The Curse of Talon -- How do I open the iron door?
 51            1 
The Curse of Talon -- What do I do in the cell?
 52            1 
The Curse of Talon -- Why can't I read some things?
 53            1 
The Curse of Talon -- What do I do with the old sword?
 54            1 
The Curse of Talon -- How do I get through the mine maze?
 55            1 
The Curse of Talon -- How do I get past the cave-in?
 56            1 
The Curse of Talon -- How do I get through the cavern maze?
 57            1 
The Curse of Talon -- What do I do at the well?
 58            1 
The Curse of Talon -- What do I do with the boat?
 59            1 
The Curse of Talon -- How do I get through the flooded cavern?
 60            1 
The Curse of Talon -- What do I do in the chamber of death?
 61            1 
The Curse of Talon -- What do I do with the staff?
 62            1 
The Curse of Talon -- Where is the Rod of Talon?
 63            2 
The Curse of Talon -- How do I beat the guardian?
 65            1 
The Curse of Talon -- Where is the mouthstone/eyestone/earstone?
 66            1 
The Curse of Talon -- How do I beat the lich?
 67            1 
The Curse of Talon -- How do I get past the kobolds?
 68            1 
Trilogy Notes.
 69            1 
The Mines of Moria - What do I do at the plateau door?
 70            2 
The Mines of Moria - It's dark!
 72            1 
The Mines of Moria - How do I open the gate?
 73            1 
The Mines of Moria - How do I defeat the army ants?
 74            1 
The Mines of Moria - What do I do with the keyhole?
 75            1 
The Mines of Moria - What do I do with the levers?
 76            1 
The Mines of Moria - What do I do with the mining tools?
 77            2 
The Mines of Moria - What do I do in the secret western room?
 79            2 
The Mines of Moria - How do I open the mithril gate.
 81            1 
The Mines of Moria - How do I defeat the balrog?
 82            1 
The Mines of Moria - How do I open the forest gate?
 83            1 
The Mines of Moria - What do I do with the Elf Captain?
 84            1 
The Mines of Moria - What do I do in the field of Galadriel?
 85            1 
The Ring of Doom -- Where can I find a source of light?
 86            1 
The Ring of Doom -- How do I get past the watchers?
 87            1 
The Iron Prison -- What do I do with the levers?
 88            1 
The Iron Prison -- Where can I find more sources of light?
 89            2 
The Iron Prison -- How do I defeat Morgoth?
 91            1 
The Iron Prison -- What does the Mithril do?
 92            1 
The Iron Prison -- How do I get home after I defeat Morgoth?
 93            1 
How do I find a source of light?
 94            1 
How do I open the wooden box?
 95            1 
How do I open the prison gate?
 96            1 
How do I open the metal chest without getting hurt?
 97            1 
