 556           424           299           366 
The Sam Ruby Adventures
 10            5             8 
Redemption
 45 
 40 
 63 
 43 
 1 
 1 
 1 
 1 
 10 
Banana Republic
 49 
 67 
 97 
 35 
 46 
 41 
 64 
 44 
 10 
The Curse of Talon
 51 
 68 
 90 
 39 
 95 
 108 
 161 
 79 
 6 
The Mines of Moria
 90 
 42 
 15 
 49 
 146 
 176 
 251 
 118 
 6 
The Forest of Fear
 75 
 38 
 1 
 56 
 236 
 218 
 266 
 167 
 6 
The Ring of Doom
 74 
 39 
 13 
 40 
 311 
 256 
 267 
 223 
 6 
The Iron Prison
 84 
 70 
 13 
 54 
 385 
 295 
 280 
 263 
 6 
The Valley of Death
 88            60            7             50 
 469           365           293           317           6 
